nbClients: 50
ServiceTimes: 
0	0	0	0	0	0	0	0	0	0	0	0	0	0	0	0	0	0	0	0	0	0	0	0	0	0	0	0	0	0	0	0	0	0	0	0	0	0	0	0	0	0	0	0	0	0	0	0	0	0	
TravelTimes: 
18	12	12	56	50	23	72	36	71	27	27	67	49	24	19	56	87	3	70	56	69	64	69	51	25	74	59	64	22	9	18	42	11	96	2	47	65	65	52	73	39	29	31	24	78	74	18	55	73	35	
0	13	30	38	33	5	65	24	69	12	42	59	31	6	15	45	73	17	52	57	71	71	52	53	40	76	52	63	38	27	35	24	27	86	16	31	66	48	51	58	45	17	35	17	64	59	20	61	57	40	
13	0	22	48	46	17	77	23	79	17	29	72	41	18	6	58	87	14	62	66	79	75	65	61	38	84	64	72	34	18	31	36	17	99	13	45	75	60	60	71	50	30	41	11	77	73	7	66	70	45	
30	22	0	68	62	35	80	46	76	38	19	75	61	36	28	66	98	13	82	59	70	62	81	53	19	75	66	68	14	4	11	54	7	105	14	59	68	77	57	85	40	39	34	33	89	85	24	55	84	37	
38	48	68	0	16	33	67	33	80	31	77	60	7	32	45	43	54	55	14	77	91	98	24	75	76	95	60	78	76	65	72	16	65	74	54	23	83	17	67	36	73	36	64	42	47	39	51	87	34	68	
33	46	62	16	0	29	51	39	64	32	75	44	12	27	45	27	43	49	28	61	76	84	18	60	67	80	43	62	68	60	65	10	61	61	48	7	68	15	51	26	60	25	51	44	35	28	51	73	24	55	
5	17	35	33	29	0	65	21	70	9	46	58	26	2	17	43	70	22	47	59	74	74	48	55	45	78	52	64	43	32	40	19	32	84	21	28	68	43	52	54	48	17	38	17	61	56	22	64	53	43	
65	77	80	67	51	65	0	84	19	73	99	7	63	63	80	24	38	69	77	31	38	56	53	36	70	40	13	24	75	80	74	58	83	29	70	45	30	56	25	42	48	48	47	82	33	38	85	48	44	47	
24	23	46	33	39	21	84	0	91	12	49	78	29	23	17	61	83	37	43	81	95	95	55	77	61	100	73	85	58	42	54	29	40	100	36	42	89	49	73	65	69	38	59	13	74	68	22	85	64	64	
69	79	76	80	64	70	19	91	0	79	95	23	75	68	83	37	57	68	91	17	20	38	69	24	62	20	20	8	68	77	67	68	81	46	68	56	12	72	18	60	38	53	41	86	52	57	86	32	61	39	
12	17	38	31	32	9	73	12	79	0	46	66	25	11	13	51	75	27	45	68	83	83	50	65	51	88	61	73	49	34	45	22	34	90	26	33	77	45	61	58	57	26	47	11	66	60	19	73	57	52	
42	29	19	77	75	46	99	49	95	46	0	94	71	48	33	83	114	29	91	78	89	79	94	72	36	93	85	87	30	18	28	66	15	123	29	73	87	90	77	100	58	56	53	37	105	101	27	73	99	56	
59	72	75	60	44	58	7	78	23	66	94	0	56	56	74	17	34	64	70	32	41	57	46	36	67	43	9	26	71	75	70	51	78	30	65	38	32	50	24	36	46	42	44	76	29	33	79	49	38	45	
31	41	61	7	12	26	63	29	75	25	71	56	0	25	39	39	54	48	22	70	85	91	26	68	69	89	54	72	68	58	65	8	58	73	47	18	77	20	61	36	66	29	56	36	46	39	45	80	34	61	
6	18	36	32	27	2	63	23	68	11	48	56	25	0	19	41	68	23	47	57	72	73	46	54	45	77	50	62	43	33	40	18	33	81	22	26	66	42	50	52	47	15	37	19	59	54	24	63	51	42	
15	6	28	45	45	17	80	17	83	13	33	74	39	19	0	60	87	21	58	71	84	81	64	66	44	89	68	77	41	24	37	34	22	100	19	45	80	58	65	71	56	32	46	5	78	73	6	72	70	51	
45	58	66	43	27	43	24	61	37	51	83	17	39	41	60	0	33	54	54	38	52	64	32	40	62	55	17	36	65	65	63	34	68	40	53	21	43	34	29	26	46	28	40	61	24	24	65	54	26	43	
73	87	98	54	43	70	38	83	57	75	114	34	54	68	87	33	0	85	56	66	76	92	30	70	95	78	43	61	98	97	96	54	99	24	85	42	67	37	58	18	78	58	73	87	9	15	93	83	20	75	
17	14	13	55	49	22	69	37	68	27	29	64	48	23	21	54	85	0	70	53	66	61	68	48	24	71	56	60	21	11	17	41	14	94	1	45	62	64	49	71	36	26	28	25	76	72	20	52	71	32	
52	62	82	14	28	47	77	43	91	45	91	70	22	47	58	54	56	70	0	89	104	112	26	89	91	108	71	90	90	79	87	30	79	79	69	36	96	20	80	39	87	51	78	54	51	43	64	101	37	83	
57	66	59	77	61	59	31	81	17	68	78	32	70	57	71	38	66	53	89	0	14	25	71	6	45	19	23	9	50	61	51	62	65	60	54	53	9	72	10	64	20	44	25	74	59	62	73	17	65	22	
71	79	70	91	76	74	38	95	20	83	89	41	85	72	84	52	76	66	104	14	0	19	84	18	53	5	35	15	59	72	60	77	76	66	67	68	8	86	24	77	30	58	38	88	70	74	86	17	78	34	
71	75	62	98	84	74	56	95	38	83	79	57	91	73	81	64	92	61	112	25	19	0	95	23	43	21	49	32	49	65	51	82	69	84	62	76	26	96	35	90	26	62	36	86	85	87	82	10	91	31	
52	65	81	24	18	48	53	55	69	50	94	46	26	46	64	32	30	68	26	71	84	95	0	72	85	87	49	69	86	79	83	29	80	53	67	23	75	6	61	13	74	43	66	62	25	17	70	85	11	70	
53	61	53	75	60	55	36	77	24	65	72	36	68	54	66	40	70	48	89	6	18	23	72	0	38	23	27	15	44	55	44	60	59	65	49	53	14	72	12	66	14	41	20	69	62	64	68	13	67	16	
40	38	19	76	67	45	70	61	62	51	36	67	69	45	44	62	95	24	91	45	53	43	85	38	0	58	57	54	6	23	8	61	27	98	25	62	53	82	46	85	24	42	23	49	86	85	42	37	85	23	
76	84	75	95	80	78	40	100	20	88	93	43	89	77	89	55	78	71	108	19	5	21	87	23	58	0	38	18	64	77	65	81	81	66	72	72	12	89	28	79	35	63	43	93	72	76	91	21	81	39	
52	64	66	60	43	52	13	73	20	61	85	9	54	50	68	17	43	56	71	23	35	49	49	27	57	38	0	20	62	67	61	48	70	40	56	36	26	51	15	41	36	35	34	69	36	38	71	40	42	35	
63	72	68	78	62	64	24	85	8	73	87	26	72	62	77	36	61	60	90	9	15	32	69	15	54	18	20	0	59	69	59	64	73	52	61	54	6	71	12	61	29	47	33	80	55	58	79	25	62	31	
38	34	14	76	68	43	75	58	68	49	30	71	68	43	41	65	98	21	90	50	59	49	86	44	6	64	62	59	0	18	3	60	21	102	22	63	59	83	50	87	30	43	27	46	89	87	38	43	87	28	
27	18	4	65	60	32	80	42	77	34	18	75	58	33	24	65	97	11	79	61	72	65	79	55	23	77	67	69	18	0	15	51	4	105	12	57	70	75	59	83	42	38	36	29	87	84	20	58	82	39	
35	31	11	72	65	40	74	54	67	45	28	70	65	40	37	63	96	17	87	51	60	51	83	44	8	65	61	59	3	15	0	57	18	101	19	60	59	80	50	84	30	40	26	42	87	84	35	44	84	28	
24	36	54	16	10	19	58	29	68	22	66	51	8	18	34	34	54	41	30	62	77	82	29	60	61	81	48	64	60	51	57	0	51	70	40	13	69	24	53	36	57	20	48	33	45	39	41	72	35	52	
27	17	7	65	61	32	83	40	81	34	15	78	58	33	22	68	99	14	79	65	76	69	80	59	27	81	70	73	21	4	18	51	0	108	14	58	74	75	62	85	46	40	39	27	89	85	18	62	84	42	
86	99	105	74	61	84	29	100	46	90	123	30	73	81	100	40	24	94	79	60	66	84	53	65	98	66	40	52	102	105	101	70	108	0	94	57	58	59	54	40	77	69	75	101	28	36	106	77	42	76	
16	13	14	54	48	21	70	36	68	26	29	65	47	22	19	53	85	1	69	54	67	62	67	49	25	72	56	61	22	12	19	40	14	94	0	45	63	63	50	71	37	26	29	24	75	72	19	53	70	33	
31	45	59	23	7	28	45	42	56	33	73	38	18	26	45	21	42	45	36	53	68	76	23	53	62	72	36	54	63	57	60	13	58	57	45	0	60	20	44	26	53	20	44	44	33	27	51	65	25	48	
66	75	68	83	68	68	30	89	12	77	87	32	77	66	80	43	67	62	96	9	8	26	75	14	53	12	26	6	59	70	59	69	74	58	63	60	0	77	16	68	29	52	34	83	61	65	82	20	69	31	
48	60	77	17	15	43	56	49	72	45	90	50	20	42	58	34	37	64	20	72	86	96	6	72	82	89	51	71	83	75	80	24	75	59	63	20	77	0	62	19	73	40	65	56	31	23	64	85	17	69	
51	60	57	67	51	52	25	73	18	61	77	24	61	50	65	29	58	49	80	10	24	35	61	12	46	28	15	12	50	59	50	53	62	54	50	44	16	62	0	55	22	35	23	68	50	52	67	25	55	22	
58	71	85	36	26	54	42	65	60	58	100	36	36	52	71	26	18	71	39	64	77	90	13	66	85	79	41	61	87	83	84	36	85	40	71	26	68	19	55	0	71	45	65	70	12	4	77	80	2	68	
45	50	40	73	60	48	48	69	38	57	58	46	66	47	56	46	78	36	87	20	30	26	74	14	24	35	36	29	30	42	30	57	46	77	37	53	29	73	22	71	0	36	10	60	70	70	56	16	72	5	
17	30	39	36	25	17	48	38	53	26	56	42	29	15	32	28	58	26	51	44	58	62	43	41	42	63	35	47	43	38	40	20	40	69	26	20	52	40	35	45	36	0	27	34	49	45	37	51	44	32	
35	41	34	64	51	38	47	59	41	47	53	44	56	37	46	40	73	28	78	25	38	36	66	20	23	43	34	33	27	36	26	48	39	75	29	44	34	65	23	65	10	27	0	50	64	64	48	26	65	5	
17	11	33	42	44	17	82	13	86	11	37	76	36	19	5	61	87	25	54	74	88	86	62	69	49	93	69	80	46	29	42	33	27	101	24	44	83	56	68	70	60	34	50	0	77	72	10	76	68	55	
64	77	89	47	35	61	33	74	52	66	105	29	46	59	78	24	9	76	51	59	70	85	25	62	86	72	36	55	89	87	87	45	89	28	75	33	61	31	50	12	70	49	64	77	0	8	84	76	14	67	
59	73	85	39	28	56	38	68	57	60	101	33	39	54	73	24	15	72	43	62	74	87	17	64	85	76	38	58	87	84	84	39	85	36	72	27	65	23	52	4	70	45	64	72	8	0	78	78	6	67	
20	7	24	51	51	22	85	22	86	19	27	79	45	24	6	65	93	20	64	73	86	82	70	68	42	91	71	79	38	20	35	41	18	106	19	51	82	64	67	77	56	37	48	10	84	78	0	73	76	52	
61	66	55	87	73	64	48	85	32	73	73	49	80	63	72	54	83	52	101	17	17	10	85	13	37	21	40	25	43	58	44	72	62	77	53	65	20	85	25	80	16	51	26	76	76	78	73	0	80	21	
57	70	84	34	24	53	44	64	61	57	99	38	34	51	70	26	20	71	37	65	78	91	11	67	85	81	42	62	87	82	84	35	84	42	70	25	69	17	55	2	72	44	65	68	14	6	76	80	0	68	
40	45	37	68	55	43	47	64	39	52	56	45	61	42	51	43	75	32	83	22	34	31	70	16	23	39	35	31	28	39	28	52	42	76	33	48	31	69	22	68	5	32	5	55	67	67	52	21	68	0	
