nbClients: 50
ServiceTimes: 
0	0	0	0	0	0	0	0	0	0	0	0	0	0	0	0	0	0	0	0	0	0	0	0	0	0	0	0	0	0	0	0	0	0	0	0	0	0	0	0	0	0	0	0	0	0	0	0	0	0	
TravelTimes: 
58	45	49	32	17	65	46	66	64	16	82	47	34	12	57	86	63	64	29	41	33	63	82	85	77	29	55	29	56	82	38	59	64	79	63	31	48	31	42	20	77	51	49	81	64	62	30	70	17	34	
0	91	9	37	61	62	39	52	50	42	39	32	42	69	42	58	7	76	34	87	33	71	33	58	64	47	26	44	51	51	42	75	31	75	82	59	13	81	56	47	22	34	32	25	57	83	69	58	76	88	
91	0	82	76	60	61	90	70	69	55	98	65	50	45	67	91	93	46	57	4	76	50	102	89	75	44	75	48	59	91	52	41	81	69	39	75	78	14	86	44	103	67	66	117	63	37	71	70	40	14	
9	82	0	29	52	58	34	49	47	32	43	27	34	60	38	59	15	70	25	78	25	66	39	59	62	39	23	35	47	52	35	69	31	72	76	51	7	71	49	38	30	30	28	34	53	76	60	55	66	78	
37	76	29	0	26	75	14	71	68	22	72	46	43	39	59	85	44	82	31	72	4	79	68	84	84	43	48	41	64	79	47	79	58	90	84	22	33	62	21	36	59	51	48	54	72	84	32	76	46	67	
61	60	52	26	0	80	36	80	78	24	91	58	47	16	69	98	67	80	39	57	29	79	89	97	92	44	64	43	70	93	52	76	74	95	80	15	53	46	27	34	82	63	60	80	78	79	13	84	22	48	
62	61	58	75	80	0	87	12	13	57	45	31	33	75	20	31	58	19	44	58	72	13	53	29	14	36	36	36	11	32	28	22	34	15	28	90	51	60	95	45	60	28	30	85	5	30	94	9	77	67	
39	90	34	14	36	87	0	81	79	36	78	56	55	51	69	93	46	95	43	86	16	91	72	93	94	57	57	54	75	87	59	92	65	102	98	26	40	76	18	50	61	61	58	49	83	98	37	87	58	80	
52	70	49	71	80	12	81	0	2	56	32	24	32	77	11	22	48	31	41	66	67	26	40	20	13	37	26	36	11	21	27	34	22	23	41	88	42	67	92	46	48	20	22	73	7	42	93	6	80	75	
50	69	47	68	78	13	79	2	0	54	31	22	30	76	9	23	46	32	39	66	64	26	39	21	15	35	24	34	10	21	25	34	20	25	41	86	40	66	89	44	46	17	20	72	8	43	91	8	79	74	
42	55	32	22	24	57	36	56	54	0	67	33	24	28	45	74	46	61	14	51	20	59	66	73	68	22	40	21	47	69	29	57	50	73	62	32	31	42	39	14	60	38	35	65	55	62	37	60	34	48	
39	98	43	72	91	45	78	32	31	67	0	36	51	94	31	23	32	64	53	94	68	58	10	24	38	57	27	55	40	16	47	66	18	51	73	94	39	92	93	64	22	32	34	51	40	75	102	36	99	100	
32	65	27	46	58	31	56	24	22	33	36	0	15	59	13	40	30	44	18	61	42	39	37	39	38	21	10	19	20	35	13	43	18	45	50	64	20	57	67	28	38	5	2	57	26	51	70	30	63	65	
42	50	34	43	47	33	55	32	30	24	51	15	0	45	23	52	43	39	12	46	40	36	53	51	44	6	25	4	23	49	5	37	33	48	43	57	28	42	62	13	53	19	17	68	31	43	60	37	49	49	
69	45	60	39	16	75	51	77	76	28	94	59	45	0	68	98	74	72	41	42	41	72	94	96	88	40	67	41	67	94	50	67	76	89	69	31	59	31	43	31	88	63	61	91	74	68	26	81	7	32	
42	67	38	59	69	20	69	11	9	45	31	13	23	68	0	29	38	36	30	63	55	30	37	28	25	28	16	27	10	26	18	37	16	33	44	77	31	61	80	37	41	8	11	65	15	45	82	17	72	69	
58	91	59	85	98	31	93	22	23	74	23	40	52	98	29	0	52	50	59	88	81	44	33	2	20	57	36	56	33	7	48	53	27	31	59	105	53	89	106	66	45	35	38	73	28	61	111	21	101	97	
7	93	15	44	67	58	46	48	46	46	32	30	43	74	38	52	0	74	37	89	39	69	25	52	60	48	22	45	48	44	42	74	26	71	81	66	15	83	63	50	15	31	30	26	53	82	75	54	80	90	
76	46	70	82	80	19	95	31	32	61	64	44	39	72	36	50	74	0	51	44	79	5	71	47	30	38	51	41	25	51	36	5	52	23	9	93	63	49	100	47	78	42	43	100	24	11	94	28	72	56	
34	57	25	31	39	44	43	41	39	14	53	18	12	41	30	59	37	51	0	53	27	48	53	58	54	14	26	11	33	54	16	49	35	60	55	46	21	46	51	13	49	23	21	60	41	55	51	46	46	53	
87	4	78	72	57	58	86	66	66	51	94	61	46	42	63	88	89	44	53	0	72	47	98	86	72	40	71	44	56	87	48	39	77	67	37	72	74	11	83	40	99	63	62	113	60	35	68	67	38	13	
33	76	25	4	29	72	16	67	64	20	68	42	40	41	55	81	39	79	27	72	0	76	64	80	80	41	44	38	60	75	43	76	54	87	82	26	29	62	25	34	55	47	44	50	68	82	36	72	48	67	
71	50	66	79	79	13	91	26	26	59	58	39	36	72	30	44	69	5	48	47	76	0	66	42	25	36	46	38	20	46	32	9	46	19	15	91	59	51	98	45	72	37	38	95	18	17	93	23	72	58	
33	102	39	68	89	53	72	40	39	66	10	37	53	94	37	33	25	71	53	98	64	66	0	34	48	59	27	57	46	26	50	73	21	60	80	90	35	95	88	64	13	35	36	41	47	82	99	44	99	103	
58	89	59	84	97	29	93	20	21	73	24	39	51	96	28	2	52	47	58	86	80	42	34	0	17	56	36	55	31	8	46	51	27	29	57	104	52	87	106	65	46	34	37	74	26	59	110	19	100	95	
64	75	62	84	92	14	94	13	15	68	38	38	44	88	25	20	60	30	54	72	80	25	48	17	0	48	39	48	21	23	39	34	34	12	40	101	55	74	105	58	58	33	36	85	13	42	105	7	90	81	
47	44	39	43	44	36	57	37	35	22	57	21	6	40	28	57	48	38	14	40	41	36	59	56	48	0	31	3	26	54	10	35	39	50	41	55	34	35	62	9	59	25	23	73	34	41	58	40	43	43	
26	75	23	48	64	36	57	26	24	40	27	10	25	67	16	36	22	51	26	71	44	46	27	36	39	31	0	29	25	30	23	51	9	49	59	69	17	67	70	37	28	9	9	49	31	60	76	32	72	75	
44	48	35	41	43	36	54	36	34	21	55	19	4	41	27	56	45	41	11	44	38	38	57	55	48	3	29	0	27	53	8	38	37	52	44	53	30	38	60	9	55	23	21	69	34	44	57	40	44	46	
51	59	47	64	70	11	75	11	10	47	40	20	23	67	10	33	48	25	33	56	60	20	46	31	21	26	25	27	0	31	18	27	26	26	34	80	40	56	84	36	52	17	19	75	7	35	84	13	70	64	
51	91	52	79	93	32	87	21	21	69	16	35	49	94	26	7	44	51	54	87	75	46	26	8	23	54	30	53	31	0	44	55	21	36	61	99	46	87	100	62	38	31	33	66	28	63	106	23	98	95	
42	52	35	47	52	28	59	27	25	29	47	13	5	50	18	48	42	36	16	48	43	32	50	46	39	10	23	8	18	44	0	34	30	44	40	61	29	44	67	18	51	15	14	68	26	41	65	32	53	52	
75	41	69	79	76	22	92	34	34	57	66	43	37	67	37	53	74	5	49	39	76	9	73	51	34	35	51	38	27	55	34	0	53	28	7	89	63	44	97	43	79	42	43	100	26	8	90	32	67	51	
31	81	31	58	74	34	65	22	20	50	18	18	33	76	16	27	26	52	35	77	54	46	21	27	34	39	9	37	26	21	30	53	0	45	60	78	25	75	79	46	25	14	16	51	29	61	85	28	81	82	
75	69	72	90	95	15	102	23	25	73	51	45	48	89	33	31	71	23	60	67	87	19	60	29	12	50	49	52	26	36	44	28	45	0	32	105	65	71	111	60	70	41	44	96	18	34	109	17	90	78	
82	39	76	84	80	28	98	41	41	62	73	50	43	69	44	59	81	9	55	37	82	15	80	57	40	41	59	44	34	61	40	7	60	32	0	93	69	44	101	48	86	49	50	107	33	2	93	38	68	50	
59	75	51	22	15	90	26	88	86	32	94	64	57	31	77	105	66	93	46	72	26	91	90	104	101	55	69	53	80	99	61	89	78	105	93	0	55	61	13	45	81	69	66	74	87	92	10	93	37	63	
13	78	7	33	53	51	40	42	40	31	39	20	28	59	31	53	15	63	21	74	29	59	35	52	55	34	17	30	40	46	29	63	25	65	69	55	0	68	54	34	29	23	21	39	46	70	63	48	65	75	
81	14	71	62	46	60	76	67	66	42	92	57	42	31	61	89	83	49	46	11	62	51	95	87	74	35	67	38	56	87	44	44	75	71	44	61	68	0	72	33	94	60	59	106	61	42	57	68	27	8	
56	86	49	21	27	95	18	92	89	39	93	67	62	43	80	106	63	100	51	83	25	98	88	106	105	62	70	60	84	100	67	97	79	111	101	13	54	72	0	53	78	72	69	67	92	101	22	97	50	75	
47	44	38	36	34	45	50	46	44	14	64	28	13	31	37	66	50	47	13	40	34	45	64	65	58	9	37	9	36	62	18	43	46	60	48	45	34	33	53	0	62	32	30	72	44	48	48	50	35	40	
22	103	30	59	82	60	61	48	46	60	22	38	53	88	41	45	15	78	49	99	55	72	13	46	58	59	28	55	52	38	51	79	25	70	86	81	29	94	78	62	0	37	37	28	55	87	90	53	94	102	
34	67	30	51	63	28	61	20	17	38	32	5	19	63	8	35	31	42	23	63	47	37	35	34	33	25	9	23	17	31	15	42	14	41	49	69	23	60	72	32	37	0	2	58	23	50	75	26	67	68	
32	66	28	48	60	30	58	22	20	35	34	2	17	61	11	38	30	43	21	62	44	38	36	37	36	23	9	21	19	33	14	43	16	44	50	66	21	59	69	30	37	2	0	57	25	51	72	28	65	67	
25	117	34	54	80	85	49	73	72	65	51	57	68	91	65	73	26	100	60	113	50	95	41	74	85	73	49	69	75	66	68	100	51	96	107	74	39	106	67	72	28	58	57	0	79	108	85	79	98	112	
57	63	53	72	78	5	83	7	8	55	40	26	31	74	15	28	53	24	41	60	68	18	47	26	13	34	31	34	7	28	26	26	29	18	33	87	46	61	92	44	55	23	25	79	0	35	91	7	76	69	
83	37	76	84	79	30	98	42	43	62	75	51	43	68	45	61	82	11	55	35	82	17	82	59	42	41	60	44	35	63	41	8	61	34	2	92	70	42	101	48	87	50	51	108	35	0	92	40	67	48	
69	71	60	32	13	94	37	93	91	37	102	70	60	26	82	111	75	94	51	68	36	93	99	110	105	58	76	57	84	106	65	90	85	109	93	10	63	57	22	48	90	75	72	85	91	92	0	97	31	58	
58	70	55	76	84	9	87	6	8	60	36	30	37	81	17	21	54	28	46	67	72	23	44	19	7	40	32	40	13	23	32	32	28	17	38	93	48	68	97	50	53	26	28	79	7	40	97	0	83	76	
76	40	66	46	22	77	58	80	79	34	99	63	49	7	72	101	80	72	46	38	48	72	99	100	90	43	72	44	70	98	53	67	81	90	68	37	65	27	50	35	94	67	65	98	76	67	31	83	0	27	
88	14	78	67	48	67	80	75	74	48	100	65	49	32	69	97	90	56	53	13	67	58	103	95	81	43	75	46	64	95	52	51	82	78	50	63	75	8	75	40	102	68	67	112	69	48	58	76	27	0	
