nbClients: 50
ServiceTimes: 
0	0	0	0	0	0	0	0	0	0	0	0	0	0	0	0	0	0	0	0	0	0	0	0	0	0	0	0	0	0	0	0	0	0	0	0	0	0	0	0	0	0	0	0	0	0	0	0	0	0	
TravelTimes: 
56	74	32	76	68	61	89	42	17	35	17	78	40	21	77	90	41	76	77	72	37	56	60	69	46	55	50	24	61	71	22	97	76	66	75	16	12	82	26	82	75	38	46	62	7	18	12	31	43	49	
0	56	32	60	81	12	70	64	71	31	40	61	79	77	29	68	70	26	34	89	19	37	71	16	49	24	39	34	84	47	34	62	37	43	47	67	57	62	82	73	33	77	15	84	55	48	57	28	19	48	
56	0	44	4	40	69	15	44	91	42	69	5	65	88	40	16	52	44	32	47	55	22	34	51	29	79	25	69	51	10	64	29	27	13	13	90	65	7	96	17	31	64	46	50	68	81	84	69	44	26	
32	44	0	47	53	43	60	32	50	2	25	49	46	51	45	60	37	46	45	60	16	24	43	42	22	46	19	25	53	39	20	65	43	34	43	48	27	52	57	56	43	44	18	53	28	36	40	26	14	23	
60	4	47	0	37	73	13	43	92	44	72	2	64	89	44	15	51	48	37	44	58	25	32	55	30	83	27	71	48	14	67	31	32	17	18	92	66	7	97	12	36	62	49	47	69	83	86	72	47	26	
81	40	53	37	0	93	45	26	80	52	72	39	37	72	76	49	28	79	69	8	69	46	10	82	32	99	41	75	13	47	70	68	65	46	52	82	56	43	80	30	68	37	66	12	61	82	80	79	62	32	
12	69	43	73	93	0	82	74	74	42	44	74	89	82	38	80	80	34	45	101	26	49	83	23	61	14	52	37	96	59	39	73	48	55	59	70	64	75	86	85	44	86	26	95	61	49	60	30	31	60	
70	15	60	13	45	82	0	56	106	57	85	11	76	102	49	4	64	53	41	51	70	37	42	62	44	93	40	84	58	23	80	25	36	28	23	106	80	8	110	15	41	75	61	57	83	97	99	84	59	40	
64	44	32	43	26	74	56	0	55	32	47	46	21	48	68	59	8	70	64	31	48	37	18	69	18	77	30	51	22	46	46	72	60	43	52	56	30	50	56	45	62	19	48	22	35	56	54	56	44	21	
71	91	50	92	80	74	106	55	0	53	31	95	47	12	94	107	52	94	95	84	53	73	73	86	62	67	67	38	72	88	37	115	93	83	93	5	26	99	12	98	92	46	63	73	23	26	15	44	60	65	
31	42	2	44	52	42	57	32	53	0	27	47	48	53	43	58	38	44	42	60	17	21	42	40	21	46	17	27	53	37	22	62	40	31	41	50	30	50	60	54	40	46	16	53	31	39	43	28	12	21	
40	69	25	72	72	44	85	47	31	27	0	74	53	38	64	85	49	63	65	78	22	48	63	55	45	38	44	7	69	64	6	89	65	59	68	27	23	77	42	80	63	50	32	69	19	11	18	14	31	47	
61	5	49	2	39	74	11	46	95	47	74	0	66	91	44	12	54	48	36	46	60	27	34	55	33	84	29	73	50	14	69	29	31	18	17	94	69	4	99	12	36	65	51	49	72	86	88	74	49	29	
79	65	46	64	37	89	76	21	47	48	53	66	0	37	88	79	13	90	84	38	62	57	34	87	38	89	50	58	25	67	54	94	81	64	73	50	29	71	44	63	82	2	65	27	35	58	52	65	60	42	
77	88	51	89	72	82	102	48	12	53	38	91	37	0	96	104	43	96	96	74	58	72	66	90	58	75	65	45	62	87	43	114	94	82	92	17	23	95	8	92	94	36	66	63	22	35	25	52	63	62	
29	40	45	44	76	38	49	68	94	43	64	44	88	96	0	46	76	4	8	84	41	31	67	15	50	52	38	59	83	30	57	35	12	29	26	91	73	43	103	57	8	86	31	83	73	74	82	55	33	47	
68	16	60	15	49	80	4	59	107	58	85	12	79	104	46	0	66	51	38	55	69	37	46	59	45	92	41	84	61	22	80	20	34	27	21	107	81	8	112	19	38	78	60	60	84	97	100	84	58	42	
70	52	37	51	28	80	64	8	52	38	49	54	13	43	76	66	0	78	72	32	54	45	23	76	26	82	38	54	20	54	49	81	68	51	60	54	28	58	51	51	70	11	55	21	34	57	53	59	50	29	
26	44	46	48	79	34	53	70	94	44	63	48	90	96	4	51	78	0	12	87	40	34	70	11	52	49	40	58	86	34	56	39	17	33	31	90	74	47	103	61	12	88	30	86	74	73	81	53	33	50	
34	32	45	37	69	45	41	64	95	42	65	36	84	96	8	38	72	12	0	77	44	27	61	22	46	58	34	61	78	23	59	28	5	23	19	92	72	35	103	49	2	82	33	77	73	76	83	58	34	43	
89	47	60	44	8	101	51	31	84	60	78	46	38	74	84	55	32	87	77	0	77	54	17	90	39	106	49	82	12	55	76	75	73	54	60	86	60	50	82	36	76	39	74	11	65	88	84	86	70	40	
19	55	16	58	69	26	70	48	53	17	22	60	62	58	41	69	54	40	44	77	0	33	59	32	38	29	31	17	70	47	16	69	44	42	49	50	38	62	63	68	42	60	10	70	36	32	40	14	11	38	
37	22	24	25	46	49	37	37	73	21	48	27	57	72	31	37	45	34	27	54	33	0	37	36	19	58	7	47	52	15	43	41	23	10	19	72	49	29	80	36	25	55	24	52	50	60	64	47	22	16	
71	34	43	32	10	83	42	18	73	42	63	34	34	66	67	46	23	70	61	17	59	37	0	73	22	89	32	66	17	40	61	63	57	38	46	74	48	38	74	29	60	34	56	16	53	73	72	69	52	22	
16	51	42	55	82	23	62	69	86	40	55	55	87	90	15	59	76	11	22	90	32	36	73	0	52	37	41	49	88	41	48	50	25	38	38	82	68	55	96	68	21	85	24	87	67	64	72	44	28	50	
49	29	22	30	32	61	44	18	62	21	45	33	38	58	50	45	26	52	46	39	38	19	22	52	0	67	12	46	35	29	41	56	42	25	35	62	36	37	66	36	44	37	34	34	39	56	57	49	30	3	
24	79	46	83	99	14	93	77	67	46	38	84	89	75	52	92	82	49	58	106	29	58	89	37	67	0	59	31	99	70	35	86	61	66	71	62	61	86	79	95	57	86	34	99	57	41	52	24	37	67	
39	25	19	27	41	52	40	30	67	17	44	29	50	65	38	41	38	40	34	49	31	7	32	41	12	59	0	44	47	21	39	48	30	16	26	66	42	32	73	37	32	48	25	46	44	56	59	45	21	9	
34	69	25	71	75	37	84	51	38	27	7	73	58	45	59	84	54	58	61	82	17	47	66	49	46	31	44	0	73	62	5	86	61	57	65	33	30	76	49	81	59	56	28	73	26	14	23	7	27	48	
84	51	53	48	13	96	58	22	72	53	69	50	25	62	83	61	20	86	78	12	70	52	17	88	35	99	47	73	0	57	68	80	73	55	63	74	49	55	69	43	76	26	69	1	54	77	73	78	65	37	
47	10	39	14	47	59	23	46	88	37	64	14	67	87	30	22	54	34	23	55	47	15	40	41	29	70	21	62	57	0	58	27	18	5	6	87	63	15	94	27	22	66	38	56	65	76	80	62	36	25	
34	64	20	67	70	39	80	46	37	22	6	69	54	43	57	80	49	56	59	76	16	43	61	48	41	35	39	5	68	58	0	83	59	53	62	34	26	72	48	76	57	52	26	68	22	17	24	10	24	43	
62	29	65	31	68	73	25	72	115	62	89	29	94	114	35	20	81	39	28	75	69	41	63	50	56	86	48	86	80	27	83	0	25	31	21	113	90	25	121	39	29	92	58	78	92	100	105	84	58	53	
37	27	43	32	65	48	36	60	93	40	65	31	81	94	12	34	68	17	5	73	44	23	57	25	42	61	30	61	73	18	59	25	0	18	14	91	70	30	101	44	4	79	33	73	71	76	82	59	34	39	
43	13	34	17	46	55	28	43	83	31	59	18	64	82	29	27	51	33	23	54	42	10	38	38	25	66	16	57	55	5	53	31	18	0	10	82	58	20	89	30	21	62	33	54	60	70	74	56	31	22	
47	13	43	18	52	59	23	52	93	41	68	17	73	92	26	21	60	31	19	60	49	19	46	38	35	71	26	65	63	6	62	21	14	10	0	91	68	16	99	30	18	72	39	62	70	79	84	64	38	31	
67	90	48	92	82	70	106	56	5	50	27	94	50	17	91	107	54	90	92	86	50	72	74	82	62	62	66	33	74	87	34	113	91	82	91	0	26	98	17	98	90	49	59	75	22	21	10	40	57	65	
57	65	27	66	56	64	80	30	26	30	23	69	29	23	73	81	28	74	72	60	38	49	48	68	36	61	42	30	49	63	26	90	70	58	68	26	0	73	31	71	70	27	44	50	5	29	24	36	41	39	
62	7	52	7	43	75	8	50	99	50	77	4	71	95	43	8	58	47	35	50	62	29	38	55	37	86	32	76	55	15	72	25	30	20	16	98	73	0	103	15	35	70	53	54	76	89	92	76	51	33	
82	96	57	97	80	86	110	56	12	60	42	99	44	8	103	112	51	103	103	82	63	80	74	96	66	79	73	49	69	94	48	121	101	89	99	17	31	103	0	100	101	43	72	71	29	38	27	56	69	70	
73	17	56	12	30	85	15	45	98	54	80	12	63	92	57	19	51	61	49	36	68	36	29	68	36	95	37	81	43	27	76	39	44	30	30	98	71	15	100	0	48	62	61	42	75	91	93	82	58	33	
33	31	43	36	68	44	41	62	92	40	63	36	82	94	8	38	70	12	2	76	42	25	60	21	44	57	32	59	76	22	57	29	4	21	18	90	70	35	101	48	0	80	31	75	71	74	81	56	32	41	
77	64	44	62	37	86	75	19	46	46	50	65	2	36	86	78	11	88	82	39	60	55	34	85	37	86	48	56	26	66	52	92	79	62	72	49	27	70	43	62	80	0	62	27	33	56	50	62	58	40	
15	46	18	49	66	26	61	48	63	16	32	51	65	66	31	60	55	30	33	74	10	24	56	24	34	34	25	28	69	38	26	58	33	33	39	59	44	53	72	61	31	62	0	69	43	43	50	25	4	34	
84	50	53	47	12	95	57	22	73	53	69	49	27	63	83	60	21	86	77	11	70	52	16	87	34	99	46	73	1	56	68	78	73	54	62	75	50	54	71	42	75	27	69	0	55	78	74	78	64	36	
55	68	28	69	61	61	83	35	23	31	19	72	35	22	73	84	34	74	73	65	36	50	53	67	39	57	44	26	54	65	22	92	71	60	70	22	5	76	29	75	71	33	43	55	0	23	19	32	40	42	
48	81	36	83	82	49	97	56	26	39	11	86	58	35	74	97	57	73	76	88	32	60	73	64	56	41	56	14	77	76	17	100	76	70	79	21	29	89	38	91	74	56	43	78	23	0	11	20	42	58	
57	84	40	86	80	60	99	54	15	43	18	88	52	25	82	100	53	81	83	84	40	64	72	72	57	52	59	23	73	80	24	105	82	74	84	10	24	92	27	93	81	50	50	74	19	11	0	30	48	59	
28	69	26	72	79	30	84	56	44	28	14	74	65	52	55	84	59	53	58	86	14	47	69	44	49	24	45	7	78	62	10	84	59	56	64	40	36	76	56	82	56	62	25	78	32	20	30	0	25	50	
19	44	14	47	62	31	59	44	60	12	31	49	60	63	33	58	50	33	34	70	11	22	52	28	30	37	21	27	65	36	24	58	34	31	38	57	41	51	69	58	32	58	4	64	40	42	48	25	0	30	
48	26	23	26	32	60	40	21	65	21	47	29	42	62	47	42	29	50	43	40	38	16	22	50	3	67	9	48	37	25	43	53	39	22	31	65	39	33	70	33	41	40	34	36	42	58	59	50	30	0	
