nbClients: 100
ServiceTimes: 
0	0	0	0	0	0	0	0	0	0	0	0	0	0	0	0	0	0	0	0	0	0	0	0	0	0	0	0	0	0	0	0	0	0	0	0	0	0	0	0	0	0	0	0	0	0	0	0	0	0	0	0	0	0	0	0	0	0	0	0	0	0	0	0	0	0	0	0	0	0	0	0	0	0	0	0	0	0	0	0	0	0	0	0	0	0	0	0	0	0	0	0	0	0	0	0	0	0	0	0	
TravelTimes: 
56	42	63	70	71	54	21	89	36	59	79	24	48	25	58	60	44	69	61	96	49	57	62	70	64	27	18	99	91	28	99	31	60	63	54	88	48	73	54	70	61	80	92	78	55	77	12	38	83	62	46	17	98	46	111	45	18	95	99	74	14	99	86	38	6	78	50	39	66	94	67	62	47	60	60	77	59	101	33	78	39	91	94	53	95	113	72	39	65	22	7	87	15	21	71	68	74	52	63	95	
0	16	76	24	50	72	44	67	54	67	24	53	17	45	57	14	73	74	70	40	36	70	73	31	15	38	65	63	67	41	81	58	60	18	85	50	76	60	30	15	86	42	36	37	88	51	47	57	44	68	15	54	70	66	78	52	50	39	55	77	50	70	75	25	56	66	14	51	68	64	11	78	26	6	5	52	38	80	42	55	65	46	53	18	65	86	64	48	10	57	54	71	51	36	15	29	40	13	43	43	
16	0	76	39	59	70	28	77	50	68	37	46	7	28	60	28	68	77	71	56	40	70	73	44	30	32	54	77	78	35	90	41	63	21	80	64	72	67	37	31	83	55	50	51	83	62	36	53	58	70	5	38	82	63	91	51	34	55	70	81	40	82	82	8	41	73	7	49	71	76	27	78	30	19	19	62	45	90	25	64	61	62	68	26	77	98	70	46	24	49	39	80	35	21	31	42	53	22	50	60	
76	76	0	68	41	9	78	46	28	9	97	38	83	82	21	66	22	10	5	104	39	6	2	60	69	46	48	68	49	43	48	92	18	93	24	65	19	32	47	81	17	60	105	64	28	47	53	25	62	9	80	78	58	16	72	24	78	101	78	14	49	60	34	80	69	32	82	28	13	59	84	4	49	82	81	46	42	53	87	44	23	74	72	59	57	66	26	30	85	40	69	40	75	67	83	60	55	63	40	87	
24	39	68	0	32	67	64	47	55	58	33	58	41	66	46	11	72	63	62	36	30	63	65	9	8	45	73	39	46	46	60	79	49	39	83	26	74	43	21	17	82	18	38	13	87	31	59	56	21	59	39	73	47	63	54	48	69	33	31	65	60	47	57	47	72	48	38	50	56	41	23	71	24	27	25	32	25	58	64	35	65	23	29	17	42	63	48	46	26	63	70	52	69	53	19	8	19	18	28	25	
50	59	41	32	0	43	75	18	41	32	65	50	64	78	21	36	53	34	35	66	22	38	38	23	37	44	67	30	19	43	31	92	23	68	62	24	53	11	22	48	57	19	69	24	66	7	59	41	21	31	61	81	26	43	39	31	79	64	37	34	57	27	25	66	76	16	62	36	28	23	54	45	29	56	54	6	14	31	80	6	49	33	31	32	23	41	17	34	57	55	75	21	77	63	50	23	15	38	9	47	
72	70	9	67	43	0	70	52	21	12	95	30	78	74	22	63	13	18	10	103	37	6	9	61	67	39	39	72	55	36	56	84	20	89	18	68	11	37	45	79	14	62	104	65	22	50	45	18	65	14	75	70	64	8	78	20	70	101	81	23	41	66	41	74	60	38	77	21	19	64	81	8	46	79	77	49	42	60	80	47	14	76	75	56	63	73	32	24	82	31	60	46	67	60	81	60	56	59	41	88	
44	28	78	64	75	70	0	94	49	72	64	40	31	4	68	53	63	82	75	84	53	72	76	67	56	34	39	99	95	36	106	16	70	46	73	87	67	80	54	59	80	78	78	75	75	80	25	52	81	75	31	10	101	62	112	56	6	83	95	87	30	102	95	21	17	86	34	50	77	97	55	78	47	47	47	80	61	107	11	82	57	87	92	48	97	117	81	49	52	40	15	94	8	12	59	65	74	45	66	87	
67	77	46	47	18	52	94	0	56	40	80	66	83	97	32	53	63	36	42	76	41	46	44	38	53	62	82	24	3	61	13	110	32	85	70	28	63	16	41	64	63	29	82	35	74	16	76	55	29	38	80	99	12	54	26	45	97	74	38	34	74	14	15	85	93	14	80	51	33	14	70	50	48	73	71	15	33	13	99	13	61	38	33	51	12	23	20	50	73	71	92	7	96	81	66	39	28	56	28	54	
54	50	28	55	41	21	49	56	0	23	78	11	58	53	23	48	18	33	25	89	25	22	26	50	52	18	25	71	58	15	64	64	24	69	30	64	21	40	33	64	33	56	88	57	33	48	25	3	59	26	55	50	67	13	80	10	50	87	76	38	21	68	51	53	41	44	57	5	30	65	65	29	31	61	59	47	33	67	59	47	11	69	71	40	64	80	38	8	65	15	41	53	47	39	65	49	50	43	35	79	
67	68	9	58	32	12	72	40	23	0	88	34	75	76	12	56	24	9	3	94	30	6	6	51	59	39	47	61	43	36	44	87	9	84	30	57	23	25	38	72	25	51	96	55	34	39	49	21	54	2	72	74	52	15	66	17	73	92	70	14	45	54	30	73	65	26	74	21	7	52	75	12	40	74	72	37	33	49	81	36	23	65	64	50	51	62	20	23	76	37	65	34	71	61	74	50	46	54	31	78	
24	37	97	33	65	95	64	80	78	88	0	77	33	64	77	31	96	94	92	21	57	92	95	42	29	62	89	67	79	65	93	75	80	19	108	55	99	76	50	16	109	51	14	45	112	64	71	80	52	89	33	74	79	89	82	75	70	21	55	97	74	78	90	43	78	82	30	75	88	72	13	100	48	18	19	65	56	91	59	68	89	48	55	38	74	94	81	71	13	81	76	85	71	58	14	41	52	35	60	36	
53	46	38	58	50	30	40	66	11	34	77	0	53	44	34	50	23	44	36	91	31	33	37	56	54	15	16	80	68	12	75	53	36	66	35	71	27	50	38	64	40	63	89	63	37	57	15	13	66	37	51	39	76	22	90	21	39	89	83	49	10	78	62	47	30	55	53	15	41	74	64	38	33	59	58	56	40	78	50	57	17	76	78	42	74	90	49	16	64	5	30	64	37	30	65	54	57	43	43	83	
17	7	83	41	64	78	31	83	58	75	33	53	0	31	67	31	76	84	79	53	47	77	81	48	33	39	61	80	83	42	96	42	70	15	88	67	79	73	42	31	91	59	47	54	90	67	43	61	62	77	3	41	87	71	95	59	37	52	72	88	47	87	88	10	46	79	3	56	78	81	25	85	37	17	17	67	51	96	26	70	68	64	70	31	82	103	76	53	21	56	44	86	39	27	30	46	57	26	56	60	
45	28	82	66	78	74	4	97	53	76	64	44	31	0	72	55	67	86	79	84	56	76	80	69	58	37	43	101	98	40	109	13	74	45	77	89	71	84	57	60	84	80	78	77	79	83	29	56	83	79	31	11	104	66	115	60	7	83	97	91	34	105	98	21	20	89	34	54	81	99	55	82	50	47	47	83	64	110	7	85	61	89	94	51	100	120	85	53	52	44	18	98	10	16	60	67	76	47	69	88	
57	60	21	46	21	22	68	32	23	12	77	34	67	72	0	45	32	17	15	82	20	17	18	39	48	34	49	51	35	32	40	84	3	74	40	46	32	16	27	60	36	40	84	43	44	28	47	22	42	12	64	71	44	22	58	13	70	80	58	21	43	45	27	65	63	20	65	19	11	43	64	24	30	63	61	27	21	43	75	26	28	54	53	39	42	56	14	19	66	38	63	29	68	56	62	38	34	43	19	66	
14	28	66	11	36	63	53	53	48	56	31	50	31	55	45	0	66	63	60	40	26	61	63	16	4	36	65	49	52	38	66	68	48	32	78	36	69	46	18	15	78	28	40	23	82	36	49	50	30	57	29	61	55	58	63	43	58	38	42	65	50	55	61	36	61	52	28	44	56	49	18	69	17	20	18	37	25	65	53	40	60	34	39	8	50	72	50	41	21	55	59	57	58	42	17	14	26	8	29	35	
73	68	22	72	53	13	63	63	18	24	96	23	76	67	32	66	0	31	23	107	41	18	22	67	70	36	28	83	66	33	68	75	31	88	12	77	4	48	50	82	17	70	107	72	15	60	38	16	73	26	73	61	75	10	89	24	62	105	90	36	33	77	54	70	50	50	75	22	31	75	83	19	49	79	78	59	48	73	73	58	7	84	84	58	74	86	43	25	83	23	51	58	59	54	83	65	64	61	48	95	
74	77	10	63	34	18	82	36	33	9	94	44	84	86	17	63	31	0	8	99	38	12	8	55	65	49	56	59	39	46	38	97	14	92	34	57	29	24	44	78	27	53	101	57	38	39	59	30	55	7	81	84	48	24	62	26	83	97	70	5	55	50	24	82	75	22	82	31	6	50	82	14	48	81	79	38	38	43	91	35	31	67	65	56	48	56	17	32	83	47	75	30	81	70	80	55	48	61	35	81	
70	71	5	62	35	10	75	42	25	3	92	36	79	79	15	60	23	8	0	98	34	4	2	55	63	42	48	63	45	39	45	89	12	88	28	60	21	27	42	76	22	55	100	58	32	42	51	22	57	4	76	76	54	15	68	20	75	96	73	13	47	56	31	76	67	28	77	24	9	54	79	9	44	77	75	40	36	50	84	38	23	68	67	53	53	63	22	26	80	39	67	36	73	63	77	54	49	57	34	82	
40	56	104	36	66	103	84	76	89	94	21	91	53	84	82	40	107	99	98	0	66	99	101	43	36	76	104	59	75	78	88	95	85	40	119	49	109	77	57	26	118	47	9	42	122	63	87	91	47	95	53	94	72	98	73	83	90	2	44	100	90	71	89	63	96	82	50	85	92	66	29	107	58	37	37	64	61	85	79	67	100	39	46	48	68	86	83	81	32	95	94	83	91	76	25	44	51	47	64	24	
36	40	39	30	22	37	53	41	25	30	57	31	47	56	20	26	41	38	34	66	0	34	37	25	29	21	47	49	42	21	52	69	23	54	53	40	43	27	8	42	52	32	66	32	56	28	37	26	35	31	44	58	49	32	61	17	56	64	52	41	36	50	42	46	53	33	45	20	31	45	44	42	10	43	41	28	9	54	59	29	35	45	47	19	45	64	29	16	46	36	52	41	55	40	43	24	26	23	13	54	
70	70	6	63	38	6	72	46	22	6	92	33	77	76	17	61	18	12	4	99	34	0	4	56	64	40	44	67	49	37	50	86	15	87	24	63	17	31	42	76	19	57	100	60	28	45	48	19	59	8	74	73	58	11	72	18	72	97	75	17	43	60	35	74	63	32	76	22	13	58	79	8	44	77	75	43	38	54	81	42	19	71	70	53	57	67	26	24	80	35	63	40	70	61	78	55	51	57	36	84	
73	73	2	65	38	9	76	44	26	6	95	37	81	80	18	63	22	8	2	101	37	4	0	58	66	44	48	65	47	41	47	91	15	90	26	63	20	30	44	78	19	57	102	61	30	44	52	24	60	6	78	77	56	15	70	22	77	99	75	13	48	58	32	78	68	30	80	26	11	56	81	6	47	80	78	43	39	51	85	41	23	71	70	56	55	64	24	28	83	39	68	38	74	65	80	57	52	60	37	85	
31	44	60	9	23	61	67	38	50	51	42	56	48	69	39	16	67	55	55	43	25	56	58	0	15	44	72	32	37	45	51	83	42	47	77	19	68	34	18	26	75	11	46	7	81	22	58	51	14	51	45	75	39	57	47	42	72	41	28	57	59	39	48	53	73	39	44	46	49	33	32	64	23	35	33	23	18	49	69	26	61	20	24	18	34	55	40	42	35	61	71	43	72	55	28	2	10	22	20	28	
15	30	69	8	37	67	56	53	52	59	29	54	33	58	48	4	70	65	63	36	29	64	66	15	0	40	69	47	52	42	66	71	51	32	82	34	73	47	21	12	82	26	36	21	86	37	53	54	29	60	31	65	55	62	62	47	61	34	40	68	54	55	62	39	65	53	29	48	59	48	17	72	21	19	18	38	27	65	56	41	63	31	37	12	50	71	52	45	20	59	63	58	62	46	14	14	25	12	31	31	
38	32	46	45	44	39	34	62	18	39	62	15	39	37	34	36	36	49	42	76	21	40	44	44	40	0	28	71	63	3	73	49	36	52	48	61	39	47	26	50	51	52	74	51	51	50	15	21	55	41	37	37	71	31	83	22	36	74	72	53	15	72	61	34	31	52	39	18	43	67	49	47	21	44	43	49	31	74	41	50	29	64	67	28	67	85	47	16	49	19	30	61	34	21	51	42	47	29	35	70	
65	54	48	73	67	39	39	82	25	47	89	16	61	43	49	65	28	56	48	104	47	44	48	72	69	28	0	96	84	27	90	49	50	76	36	87	31	66	54	78	44	79	101	79	37	73	18	27	82	50	59	35	92	32	106	36	36	103	99	61	14	94	76	53	24	69	62	30	54	90	76	47	49	70	69	73	56	93	50	73	25	92	94	57	90	106	63	32	75	11	25	79	33	34	78	70	73	57	59	98	
63	77	68	39	30	72	99	24	71	61	67	80	80	101	51	49	83	59	63	59	49	67	65	32	47	71	96	0	21	71	32	115	52	78	91	13	83	35	45	54	85	21	66	25	95	23	86	71	18	59	78	106	15	73	15	61	103	57	15	58	86	13	39	85	102	36	77	66	54	10	61	72	52	66	65	24	40	28	101	25	79	20	13	50	12	27	41	64	65	85	101	32	102	87	56	34	25	55	37	35	
67	78	49	46	19	55	95	3	58	43	79	68	83	98	35	52	66	39	45	75	42	49	47	37	52	63	84	21	0	62	14	111	35	84	73	26	66	18	41	63	66	28	80	34	77	16	78	57	27	41	80	101	9	56	23	47	99	72	35	37	76	11	18	85	95	17	80	54	36	11	69	53	48	72	70	15	34	12	100	13	63	36	31	51	9	22	23	52	72	73	94	10	97	82	65	38	27	56	29	52	
41	35	43	46	43	36	36	61	15	36	65	12	42	40	32	38	33	46	39	78	21	37	41	45	42	3	27	71	62	0	71	51	34	55	45	61	36	45	27	52	48	52	76	52	48	49	15	18	56	39	40	39	70	28	82	19	38	76	72	50	14	71	59	37	32	51	42	15	41	66	52	44	22	47	46	49	31	73	44	49	25	65	68	30	66	84	45	13	51	17	31	60	36	24	53	43	47	31	34	71	
81	90	48	60	31	56	106	13	64	44	93	75	96	109	40	66	68	38	45	88	52	50	47	51	66	73	90	32	14	71	0	122	39	98	73	39	67	25	53	77	65	42	94	48	76	29	86	62	41	42	93	110	17	60	27	54	108	86	47	35	84	19	14	97	103	20	93	60	37	23	83	52	60	86	84	28	45	5	111	25	67	49	43	64	21	18	26	59	86	79	103	11	107	93	79	52	41	69	40	65	
58	41	92	79	92	84	16	110	64	87	75	53	42	13	84	68	75	97	89	95	69	86	91	83	71	49	49	115	111	51	122	0	86	56	85	103	79	96	70	73	92	94	89	90	86	96	38	67	97	90	43	14	118	76	128	71	13	95	111	102	43	118	110	33	25	102	45	65	93	113	67	92	63	59	59	96	77	123	16	98	70	102	107	64	113	133	97	65	64	52	24	111	16	29	72	81	90	61	82	101	
60	63	18	49	23	20	70	32	24	9	80	36	70	74	3	48	31	14	12	85	23	15	15	42	51	36	50	52	35	34	39	86	0	77	38	48	31	17	30	64	34	42	87	45	42	30	48	23	44	9	67	73	44	21	58	15	72	83	60	18	45	46	26	68	65	19	68	21	8	44	67	22	33	66	64	28	24	43	78	27	28	56	55	42	43	56	13	21	69	39	65	29	70	58	65	41	36	46	21	69	
18	21	93	39	68	89	46	85	69	84	19	66	15	45	74	32	88	92	88	40	54	87	90	47	32	52	76	78	84	55	98	56	77	0	100	65	91	78	48	24	102	58	33	52	103	69	57	72	60	86	16	56	87	82	93	69	52	40	68	95	61	86	93	25	61	84	13	67	85	80	17	95	44	12	14	69	56	97	40	72	80	59	66	36	82	103	82	64	13	70	59	89	54	42	22	46	57	31	61	52	
85	80	24	83	62	18	73	70	30	30	108	35	88	77	40	78	12	34	28	119	53	24	26	77	82	48	36	91	73	45	73	85	38	100	0	86	9	55	61	94	9	80	118	82	4	68	49	28	82	32	85	71	82	20	96	35	72	117	99	38	43	84	58	82	60	56	87	33	37	82	95	20	60	91	90	67	59	77	84	66	19	94	93	70	81	90	50	37	95	33	61	64	69	65	95	76	74	73	58	106	
50	64	65	26	24	68	87	28	64	57	55	71	67	89	46	36	77	57	60	49	40	63	63	19	34	61	87	13	26	61	39	103	48	65	86	0	78	33	34	41	82	8	55	12	90	18	76	64	5	56	65	94	24	67	28	54	91	47	12	57	76	23	42	72	91	36	64	59	52	17	48	69	41	53	51	19	31	36	89	22	72	10	7	38	19	38	40	56	52	76	90	35	91	75	43	22	14	42	29	26	
76	72	19	74	53	11	67	63	21	23	99	27	79	71	32	69	4	29	21	109	43	17	20	68	73	39	31	83	66	36	67	79	31	91	9	78	0	48	52	84	13	71	109	73	13	60	42	19	74	25	76	65	75	11	89	26	66	107	90	34	37	77	53	74	54	49	79	24	30	75	86	17	51	82	81	59	50	72	77	58	10	85	85	61	74	85	43	28	86	27	55	58	63	58	86	67	65	64	49	97	
60	67	32	43	11	37	80	16	40	25	76	50	73	84	16	46	48	24	27	77	27	31	30	34	47	47	66	35	18	45	25	96	17	78	55	33	48	0	30	59	49	30	81	35	59	15	61	39	31	23	70	85	27	38	41	29	83	75	46	24	59	29	15	74	78	6	70	35	18	27	64	36	36	66	64	14	22	27	86	11	45	43	40	42	26	39	6	34	67	55	77	14	81	67	61	34	26	47	17	58	
30	37	47	21	22	45	54	41	33	38	50	38	42	57	27	18	50	44	42	57	8	42	44	18	21	26	54	45	41	27	53	70	30	48	61	34	52	30	0	33	60	25	58	25	65	26	41	34	29	39	40	61	47	41	58	26	58	55	45	47	41	48	45	44	57	36	40	28	38	42	37	50	7	36	34	26	8	54	58	28	43	38	41	12	43	63	34	25	38	43	55	43	57	41	35	16	20	17	13	45	
15	31	81	17	48	79	59	64	64	72	16	64	31	60	60	15	82	78	76	26	42	76	78	26	12	50	78	54	63	52	77	73	64	24	94	41	84	59	33	0	94	35	24	29	97	48	61	65	37	73	30	69	64	74	69	59	65	25	43	80	63	63	73	39	71	65	27	60	71	57	7	84	33	14	13	49	39	75	57	52	75	35	42	23	59	79	64	56	11	69	69	69	66	51	2	25	36	21	43	29	
86	83	17	82	57	14	80	63	33	25	109	40	91	84	36	78	17	27	22	118	52	19	19	75	82	51	44	85	66	48	65	92	34	102	9	82	13	49	60	94	0	76	118	79	12	64	55	30	79	26	88	78	75	20	89	34	79	116	95	30	50	77	51	86	67	49	90	35	30	76	96	13	61	93	91	62	57	70	90	61	23	90	89	71	75	83	43	38	97	40	68	57	76	70	95	74	71	74	55	103	
42	55	60	18	19	62	78	29	56	51	51	63	59	80	40	28	70	53	55	47	32	57	57	11	26	52	79	21	28	52	42	94	42	58	80	8	71	30	25	35	76	0	52	6	84	15	67	56	3	51	57	85	28	60	35	46	83	45	20	54	67	28	41	64	83	34	56	51	47	22	42	64	32	46	44	16	23	40	80	19	65	13	15	29	23	44	36	48	45	68	81	35	82	66	37	13	6	33	21	27	
36	50	105	38	69	104	78	82	88	96	14	89	47	78	84	40	107	101	100	9	66	100	102	46	36	74	101	66	80	76	94	89	87	33	118	55	109	81	58	24	118	52	0	46	122	67	84	90	52	96	47	88	79	99	80	84	84	10	51	103	87	78	93	57	92	86	44	85	94	72	25	108	58	32	32	68	63	91	73	71	100	46	53	48	74	93	86	81	26	93	90	88	85	72	23	46	55	45	66	31	
37	51	64	13	24	65	75	35	57	55	45	63	54	77	43	23	72	57	58	42	32	60	61	7	21	51	79	25	34	52	48	90	45	52	82	12	73	35	25	29	79	6	46	0	86	20	66	57	7	54	52	83	34	62	40	48	80	40	20	58	66	34	47	60	80	39	51	52	51	27	36	68	30	41	39	21	24	46	76	25	66	13	17	26	29	50	41	48	40	68	79	41	79	63	31	9	9	30	24	23	
88	83	28	87	66	22	75	74	33	34	112	37	90	79	44	82	15	38	32	122	56	28	30	81	86	51	37	95	77	48	76	86	42	103	4	90	13	59	65	97	12	84	122	86	0	73	50	31	86	36	88	72	86	24	100	39	73	120	103	41	45	88	62	84	61	60	90	37	41	86	99	24	64	95	93	71	63	81	86	70	22	98	98	74	85	94	54	41	99	35	62	68	70	67	99	80	78	77	62	110	
51	62	47	31	7	50	80	16	48	39	64	57	67	83	28	36	60	39	42	63	28	45	44	22	37	50	73	23	16	49	29	96	30	69	68	18	60	15	26	48	64	15	67	20	73	0	65	48	16	38	64	86	21	50	33	38	84	60	30	39	63	22	26	69	81	19	64	43	34	17	54	51	33	56	54	1	19	28	84	4	56	27	25	35	17	37	22	41	57	62	80	21	83	67	50	23	12	40	14	42	
47	36	53	59	59	45	25	76	25	49	71	15	43	29	47	49	38	59	51	87	37	48	52	58	53	15	18	86	78	15	86	38	48	57	49	76	42	61	41	61	55	67	84	66	50	65	0	28	70	51	41	25	85	37	98	33	24	86	87	63	5	87	74	35	16	66	44	27	55	82	59	53	35	52	51	65	46	89	35	65	32	79	82	42	82	100	60	27	57	15	16	75	22	17	61	56	62	41	50	84	
57	53	25	56	41	18	52	55	3	21	80	13	61	56	22	50	16	30	22	91	26	19	24	51	54	21	27	71	57	18	62	67	23	72	28	64	19	39	34	65	30	56	90	57	31	48	28	0	59	23	58	53	66	10	79	10	53	89	76	35	24	67	49	56	44	42	60	5	27	64	67	26	32	63	62	47	33	66	62	46	9	70	71	42	63	78	36	9	67	16	44	51	50	42	67	50	50	45	35	80	
44	58	62	21	21	65	81	29	59	54	52	66	62	83	42	30	73	55	57	47	35	59	60	14	29	55	82	18	27	56	41	97	44	60	82	5	74	31	29	37	79	3	52	7	86	16	70	59	0	53	59	89	27	63	33	49	86	45	17	55	70	26	42	67	86	35	58	54	49	20	43	66	35	48	46	17	26	39	83	20	68	11	12	32	22	42	38	51	47	71	84	35	85	69	39	16	9	36	24	26	
68	70	9	59	31	14	75	38	26	2	89	37	77	79	12	57	26	7	4	95	31	8	6	51	60	41	50	59	41	39	42	90	9	86	32	56	25	23	39	73	26	51	96	54	36	38	51	23	53	0	74	76	50	18	64	19	76	92	68	12	47	52	27	75	68	24	75	24	5	50	76	13	42	75	73	36	33	46	83	34	25	65	63	51	49	59	18	25	78	40	68	32	73	63	74	50	45	55	31	78	
15	5	80	39	61	75	31	80	55	72	33	51	3	31	64	29	73	81	76	53	44	74	78	45	31	37	59	78	80	40	93	43	67	16	85	65	76	70	40	30	88	57	47	52	88	64	41	58	59	74	0	41	84	68	93	56	37	52	70	85	45	84	85	10	45	76	3	53	75	78	24	82	34	16	16	65	48	93	27	67	66	62	68	29	79	100	73	50	21	54	43	83	38	25	29	43	54	24	53	59	
54	38	78	73	81	70	10	99	50	74	74	39	41	11	71	61	61	84	76	94	58	73	77	75	65	37	35	106	101	39	110	14	73	56	71	94	65	85	61	69	78	85	88	83	72	86	25	53	89	76	41	0	107	62	119	58	4	93	103	89	29	108	98	31	11	90	44	52	80	103	65	78	54	57	57	86	67	112	19	87	56	95	100	56	103	123	85	52	62	38	10	99	3	19	69	73	81	54	72	96	
70	82	58	47	26	64	101	12	67	52	79	76	87	104	44	55	75	48	54	72	49	58	56	39	55	71	92	15	9	70	17	118	44	87	82	24	75	27	47	64	75	28	79	34	86	21	85	66	27	50	84	107	0	65	14	56	105	70	30	46	84	2	26	90	102	26	84	62	45	7	71	62	54	75	73	21	40	13	105	20	72	33	27	55	5	16	32	60	74	81	101	18	104	89	66	41	29	60	35	49	
66	63	16	63	43	8	62	54	13	15	89	22	71	66	22	58	10	24	15	98	32	11	15	57	62	31	32	73	56	28	60	76	21	82	20	67	11	38	41	74	20	60	99	62	24	50	37	10	63	18	68	62	65	0	79	15	62	96	80	29	32	67	45	66	52	40	70	14	22	65	76	16	41	72	71	49	38	63	72	48	7	74	74	50	64	76	34	18	76	24	52	49	59	52	75	56	54	54	38	85	
78	91	72	54	39	78	112	26	80	66	82	90	95	115	58	63	89	62	68	73	61	72	70	47	62	83	106	15	23	82	27	128	58	93	96	28	89	41	58	69	89	35	80	40	100	33	98	79	33	64	93	119	14	79	0	69	116	71	29	59	97	12	39	100	114	40	92	75	59	16	76	76	65	81	80	33	52	21	115	33	86	34	27	65	16	14	46	73	80	94	113	32	115	100	71	49	38	69	47	49	
52	51	24	48	31	20	56	45	10	17	75	21	59	60	13	43	24	26	20	83	17	18	22	42	47	22	36	61	47	19	54	71	15	69	35	54	26	29	26	59	34	46	84	48	39	38	33	10	49	19	56	58	56	15	69	0	57	81	66	31	30	57	41	56	50	33	57	6	21	54	61	26	26	59	57	37	24	57	64	36	18	60	61	36	53	69	27	6	62	25	50	43	55	44	60	41	40	39	25	71	
50	34	78	69	79	70	6	97	50	73	70	39	37	7	70	58	62	83	75	90	56	72	77	72	61	36	36	103	99	38	108	13	72	52	72	91	66	83	58	65	79	83	84	80	73	84	24	53	86	76	37	4	105	62	116	57	0	89	100	88	29	106	97	27	13	88	40	52	79	100	61	78	51	53	53	84	65	110	15	85	56	92	97	53	101	120	83	51	58	39	11	97	3	16	65	70	78	50	70	92	
39	55	101	33	64	101	83	74	87	92	21	89	52	83	80	38	105	97	96	2	64	97	99	41	34	74	103	57	72	76	86	95	83	40	117	47	107	75	55	25	116	45	10	40	120	60	86	89	45	92	52	93	70	96	71	81	89	0	42	98	88	69	87	62	95	80	49	83	90	63	28	105	56	36	36	62	59	83	78	65	98	37	44	47	66	84	81	79	31	94	93	81	90	75	24	41	49	45	61	22	
55	70	78	31	37	81	95	38	76	70	55	83	72	97	58	42	90	70	73	44	52	75	75	28	40	72	99	15	35	72	47	111	60	68	99	12	90	46	45	43	95	20	51	20	103	30	87	76	17	68	70	103	30	80	29	66	100	42	0	69	87	29	53	79	101	48	69	71	64	24	50	82	51	57	55	32	43	43	96	34	85	8	5	47	26	42	52	68	55	88	100	46	100	84	45	30	26	50	41	20	
77	81	14	65	34	23	87	34	38	14	97	49	88	91	21	65	36	5	13	100	41	17	13	57	68	53	61	58	37	50	35	102	18	95	38	57	34	24	47	80	30	54	103	58	41	39	63	35	55	12	85	89	46	29	59	31	88	98	69	0	59	48	21	86	80	21	86	36	10	48	84	17	51	84	82	38	40	40	95	35	36	67	64	59	46	53	17	37	86	52	80	27	86	75	82	56	49	64	37	82	
50	40	49	60	57	41	30	74	21	45	74	10	47	34	43	50	33	55	47	90	36	43	48	59	54	15	14	86	76	14	84	43	45	61	43	76	37	59	41	63	50	67	87	66	45	63	5	24	70	47	45	29	84	32	97	30	29	88	87	59	0	85	71	39	20	63	48	24	51	80	62	49	36	56	55	63	45	86	40	64	27	79	82	43	80	98	57	24	60	10	20	73	26	21	64	57	61	43	49	85	
70	82	60	47	27	66	102	14	68	54	78	78	87	105	45	55	77	50	56	71	50	60	58	39	55	72	94	13	11	71	19	118	46	86	84	23	77	29	48	63	77	28	78	34	88	22	87	67	26	52	84	108	2	67	12	57	106	69	29	48	85	0	28	91	103	28	84	63	47	6	70	64	55	75	73	22	41	14	106	21	74	32	25	56	5	16	34	61	74	83	102	21	105	89	65	41	30	60	36	48	
75	82	34	57	25	41	95	15	51	30	90	62	88	98	27	61	54	24	31	89	42	35	32	48	62	61	76	39	18	59	14	110	26	93	58	42	53	15	45	73	51	41	93	47	62	26	74	49	42	27	85	98	26	45	39	41	97	87	53	21	71	28	0	89	91	9	86	47	22	29	79	38	51	81	79	25	37	19	101	22	53	52	48	57	27	32	13	46	82	66	90	7	95	82	75	48	38	62	32	68	
25	8	80	47	66	74	21	85	53	73	43	47	10	21	65	36	70	82	76	63	46	74	78	53	39	34	53	85	85	37	97	33	68	25	82	72	74	74	44	39	86	64	57	60	84	69	35	56	67	75	10	31	90	66	100	56	27	62	79	86	39	91	89	0	36	80	13	52	76	85	34	81	37	26	26	70	52	98	17	72	63	70	76	35	86	106	76	50	31	49	34	87	28	18	39	50	61	30	57	68	
56	41	69	72	76	60	17	93	41	65	78	30	46	20	63	61	50	75	67	96	53	63	68	73	65	31	24	102	95	32	103	25	65	61	60	91	54	78	57	71	67	83	92	80	61	81	16	44	86	68	45	11	102	52	114	50	13	95	101	80	20	103	91	36	0	83	48	44	71	98	67	68	50	60	59	81	62	106	28	82	45	93	97	55	99	117	77	44	65	28	2	92	10	20	71	71	77	53	67	96	
66	73	32	48	16	38	86	14	44	26	82	55	79	89	20	52	50	22	28	82	33	32	30	39	53	52	69	36	17	51	20	102	19	84	56	36	49	6	36	65	49	34	86	39	60	19	66	42	35	24	76	90	26	40	40	33	88	80	48	21	63	28	9	80	83	0	76	40	19	27	70	36	42	72	70	18	28	23	92	15	47	46	43	48	25	36	6	38	73	59	82	9	87	73	67	40	30	53	23	62	
14	7	82	38	62	77	34	80	57	74	30	53	3	34	65	28	75	82	77	50	45	76	80	44	29	39	62	77	80	42	93	45	68	13	87	64	79	70	40	27	90	56	44	51	90	64	44	60	58	75	3	44	84	70	92	57	40	49	69	86	48	84	86	13	48	76	0	55	76	77	21	84	35	13	14	64	48	93	29	67	68	60	67	29	79	100	74	52	18	56	46	83	41	29	26	43	54	24	53	56	
51	49	28	50	36	21	50	51	5	21	75	15	56	54	19	44	22	31	24	85	20	22	26	46	48	18	30	66	54	15	60	65	21	67	33	59	24	35	28	60	35	51	85	52	37	43	27	5	54	24	53	52	62	14	75	6	52	83	71	36	24	63	47	52	44	40	55	0	27	60	61	29	27	58	56	42	28	63	59	42	15	64	66	36	59	75	34	3	62	19	44	49	49	39	61	44	45	39	30	74	
68	71	13	56	28	19	77	33	30	7	88	41	78	81	11	56	31	6	9	92	31	13	11	49	59	43	54	54	36	41	37	93	8	85	37	52	30	18	38	71	30	47	94	51	41	34	55	27	49	5	75	80	45	22	59	21	79	90	64	10	51	47	22	76	71	19	76	27	0	45	75	17	41	74	72	32	31	41	85	30	30	61	59	50	44	54	13	27	77	44	71	27	76	65	73	48	42	54	28	75	
64	76	59	41	23	64	97	14	65	52	72	74	81	99	43	49	75	50	54	66	45	58	56	33	48	67	90	10	11	66	23	113	44	80	82	17	75	27	42	57	76	22	72	27	86	17	82	64	20	50	78	103	7	65	16	54	100	63	24	48	80	6	29	85	98	27	77	60	45	0	64	63	49	68	66	17	36	19	100	17	71	26	20	50	2	22	32	57	68	79	97	22	99	84	59	34	23	54	31	42	
11	27	84	23	54	81	55	70	65	75	13	64	25	55	64	18	83	82	79	29	44	79	81	32	17	49	76	61	69	52	83	67	67	17	95	48	86	64	37	7	96	42	25	36	99	54	59	67	43	76	24	65	71	76	76	61	61	28	50	84	62	70	79	34	67	70	21	61	75	64	0	87	35	8	8	55	43	81	51	58	76	42	49	25	65	86	69	58	4	68	65	75	62	47	5	31	42	22	48	35	
78	78	4	71	45	8	78	50	29	12	100	38	85	82	24	69	19	14	9	107	42	8	6	64	72	47	47	72	53	44	52	92	22	95	20	69	17	36	50	84	13	64	108	68	24	51	53	26	66	13	82	78	62	16	76	26	78	105	82	17	49	64	38	81	68	36	84	29	17	63	87	0	52	85	83	50	45	57	88	48	22	78	76	61	61	70	30	31	88	40	68	44	75	68	86	63	59	65	44	91	
26	30	49	24	29	46	47	48	31	40	48	33	37	50	30	17	49	48	44	58	10	44	47	23	21	21	49	52	48	22	60	63	33	44	60	41	51	36	7	33	61	32	58	30	64	33	35	32	35	42	34	54	54	41	65	26	51	56	51	51	36	55	51	37	50	42	35	27	41	49	35	52	0	33	31	33	14	61	51	35	42	43	47	9	50	70	39	23	36	38	49	49	50	34	34	21	27	13	20	49	
6	19	82	27	56	79	47	73	61	74	18	59	17	47	63	20	79	81	77	37	43	77	80	35	19	44	70	66	72	47	86	59	66	12	91	53	82	66	36	14	93	46	32	41	95	56	52	63	48	75	16	57	75	72	81	59	53	36	57	84	56	75	81	26	60	72	13	58	74	68	8	85	33	0	2	57	44	85	43	60	72	49	55	24	70	91	70	54	5	63	58	77	54	40	13	34	45	19	49	43	
5	19	81	25	54	77	47	71	59	72	19	58	17	47	61	18	78	79	75	37	41	75	78	33	18	43	69	65	70	46	84	59	64	14	90	51	81	64	34	13	91	44	32	39	93	54	51	62	46	73	16	57	73	71	80	57	53	36	55	82	55	73	79	26	59	70	14	56	72	66	8	83	31	2	0	55	42	83	43	58	70	47	54	22	68	89	68	53	5	62	57	75	54	39	12	32	43	18	47	42	
52	62	46	32	6	49	80	15	47	37	65	56	67	83	27	37	59	38	40	64	28	43	43	23	38	49	73	24	15	49	28	96	28	69	67	19	59	14	26	49	62	16	68	21	71	1	65	47	17	36	65	86	21	49	33	37	84	62	32	38	63	22	25	70	81	18	64	42	32	17	55	50	33	57	55	0	19	28	85	3	55	29	26	35	17	36	20	40	58	61	80	20	82	67	51	24	13	40	14	44	
38	45	42	25	14	42	61	33	33	33	56	40	51	64	21	25	48	38	36	61	9	38	39	18	27	31	56	40	34	31	45	77	24	56	59	31	50	22	8	39	57	23	63	24	63	19	46	33	26	33	48	67	40	38	52	24	65	59	43	40	45	41	37	52	62	28	48	28	31	36	43	45	14	44	42	19	0	46	66	20	42	36	38	20	36	55	26	25	46	45	61	35	63	48	41	17	17	25	5	46	
80	90	53	58	31	60	107	13	67	49	91	78	96	110	43	65	73	43	50	85	54	54	51	49	65	74	93	28	12	73	5	123	43	97	77	36	72	27	54	75	70	40	91	46	81	28	89	66	39	46	93	112	13	63	21	57	110	83	43	40	86	14	19	98	106	23	93	63	41	19	81	57	61	85	83	28	46	0	112	25	71	46	40	64	17	13	29	62	85	82	105	14	108	94	77	51	39	69	41	62	
42	25	87	64	80	80	11	99	59	81	59	50	26	7	75	53	73	91	84	79	59	81	85	69	56	41	50	101	100	44	111	16	78	40	84	89	77	86	58	57	90	80	73	76	86	84	35	62	83	83	27	19	105	72	115	64	15	78	96	95	40	106	101	17	28	92	29	59	85	100	51	88	51	43	43	85	66	112	0	86	67	87	93	50	101	121	88	58	48	50	26	100	18	20	56	67	77	46	71	86	
55	64	44	35	6	47	82	13	47	36	68	57	70	85	26	40	58	35	38	67	29	42	41	26	41	50	73	25	13	49	25	98	27	72	66	22	58	11	28	52	61	19	71	25	70	4	65	46	20	34	67	87	20	48	33	36	85	65	34	35	64	21	22	72	82	15	67	42	30	17	58	48	35	60	58	3	20	25	86	0	54	31	29	38	17	35	18	40	61	61	81	17	84	69	54	27	16	43	15	47	
65	61	23	65	49	14	57	61	11	23	89	17	68	61	28	60	7	31	23	100	35	19	23	61	63	29	25	79	63	25	67	70	28	80	19	72	10	45	43	75	23	65	100	66	22	56	32	9	68	25	66	56	72	7	86	18	56	98	85	36	27	74	53	63	45	47	68	15	30	71	76	22	42	72	70	55	42	71	67	54	0	79	79	52	70	84	41	18	76	17	46	57	53	47	76	59	59	54	43	89	
46	62	74	23	33	76	87	38	69	65	48	76	64	89	54	34	84	67	68	39	45	71	71	20	31	64	92	20	36	65	49	102	56	59	94	10	85	43	38	35	90	13	46	13	98	27	79	70	11	65	62	95	33	74	34	60	92	37	8	67	79	32	52	70	93	46	60	64	61	26	42	78	43	49	47	29	36	46	87	31	79	0	7	38	28	47	49	61	46	81	92	45	91	75	37	22	19	41	35	16	
53	68	72	29	31	75	92	33	71	64	55	78	70	94	53	39	84	65	67	46	47	70	70	24	37	67	94	13	31	68	43	107	55	66	93	7	85	40	41	42	89	15	53	17	98	25	82	71	12	63	68	100	27	74	27	61	97	44	5	64	82	25	48	76	97	43	67	66	59	20	49	76	47	55	54	26	38	40	93	29	79	7	0	43	22	40	47	63	53	83	96	41	96	80	44	26	21	46	36	22	
18	26	59	17	32	56	48	51	40	50	38	42	31	51	39	8	58	56	53	48	19	53	56	18	12	28	57	50	51	30	64	64	42	36	70	38	61	42	12	23	71	29	48	26	74	35	42	42	32	51	29	56	55	50	65	36	53	47	47	59	43	56	57	35	55	48	29	36	50	50	25	61	9	24	22	35	20	64	50	38	52	38	43	0	51	71	46	33	26	47	53	54	53	37	24	16	26	5	25	42	
65	77	57	42	23	63	97	12	64	51	74	74	82	100	42	50	74	48	53	68	45	57	55	34	50	67	90	12	9	66	21	113	43	82	81	19	74	26	43	59	75	23	74	29	85	17	82	63	22	49	79	103	5	64	16	53	101	66	26	46	80	5	27	86	99	25	79	59	44	2	65	61	50	70	68	17	36	17	101	17	70	28	22	51	0	21	31	57	69	78	97	20	100	84	61	36	25	55	31	44	
86	98	66	63	41	73	117	23	80	62	94	90	103	120	56	72	86	56	63	86	64	67	64	55	71	85	106	27	22	84	18	133	56	103	90	38	85	39	63	79	83	44	93	50	94	37	100	78	42	59	100	123	16	76	14	69	120	84	42	53	98	16	32	106	117	36	100	75	54	22	86	70	70	91	89	36	55	13	121	35	84	47	40	71	21	0	42	74	90	94	116	27	119	104	81	57	46	76	50	62	
64	70	26	48	17	32	81	20	38	20	81	49	76	85	14	50	43	17	22	83	29	26	24	40	52	47	63	41	23	45	26	97	13	82	50	40	43	6	34	64	43	36	86	41	54	22	60	36	38	18	73	85	32	34	46	27	83	81	52	17	57	34	13	76	77	6	74	34	13	32	69	30	39	70	68	20	26	29	88	18	41	49	47	46	31	42	0	33	72	53	77	15	81	68	66	40	32	51	21	64	
48	46	30	46	34	24	49	50	8	23	71	16	53	53	19	41	25	32	26	81	16	24	28	42	45	16	32	64	52	13	59	65	21	64	37	56	28	34	25	56	38	48	81	48	41	41	27	9	51	25	50	52	60	18	73	6	51	79	68	37	24	61	46	50	44	38	52	3	27	57	58	31	23	54	53	40	25	62	58	40	18	61	63	33	57	74	33	0	58	21	44	48	49	38	58	41	42	36	27	70	
10	24	85	26	57	82	52	73	65	76	13	64	21	52	66	21	83	83	80	32	46	80	83	35	20	49	75	65	72	51	86	64	69	13	95	52	86	67	38	11	97	45	26	40	99	57	57	67	47	78	21	62	74	76	80	62	58	31	55	86	60	74	82	31	65	73	18	62	77	68	4	88	36	5	5	58	46	85	48	61	76	46	53	26	69	90	72	58	0	68	63	78	59	45	9	34	45	22	50	40	
57	49	40	63	55	31	40	71	15	37	81	5	56	44	38	55	23	47	39	95	36	35	39	61	59	19	11	85	73	17	79	52	39	70	33	76	27	55	43	69	40	68	93	68	35	62	15	16	71	40	54	38	81	24	94	25	39	94	88	52	10	83	66	49	28	59	56	19	44	79	68	40	38	63	62	61	45	82	50	61	17	81	83	47	78	94	53	21	68	0	28	68	36	31	70	59	62	48	48	88	
54	39	69	70	75	60	15	92	41	65	76	30	44	18	63	59	51	75	67	94	52	63	68	71	63	30	25	101	94	31	103	24	65	59	61	90	55	77	55	69	68	81	90	79	62	80	16	44	84	68	43	10	101	52	113	50	11	93	100	80	20	102	90	34	2	82	46	44	71	97	65	68	49	58	57	80	61	105	26	81	46	92	96	53	97	116	77	44	63	28	0	91	8	18	69	69	76	51	66	94	
71	80	40	52	21	46	94	7	53	34	85	64	86	98	29	57	58	30	36	83	41	40	38	43	58	61	79	32	10	60	11	111	29	89	64	35	58	14	43	69	57	35	88	41	68	21	75	51	35	32	83	99	18	49	32	43	97	81	46	27	73	21	7	87	92	9	83	49	27	22	75	44	49	77	75	20	35	14	100	17	57	45	41	54	20	27	15	48	78	68	91	0	95	82	71	44	33	59	29	61	
51	35	75	69	77	67	8	96	47	71	71	37	39	10	68	58	59	81	73	91	55	70	74	72	62	34	33	102	97	36	107	16	70	54	69	91	63	81	57	66	76	82	85	79	70	83	22	50	85	73	38	3	104	59	115	55	3	90	100	86	26	105	95	28	10	87	41	49	76	99	62	75	50	54	54	82	63	108	18	84	53	91	96	53	100	119	81	49	59	36	8	95	0	16	66	69	77	50	68	93	
36	21	67	53	63	60	12	81	39	61	58	30	27	16	56	42	54	70	63	76	40	61	65	55	46	21	34	87	82	24	93	29	58	42	65	75	58	67	41	51	70	66	72	63	67	67	17	42	69	63	25	19	89	52	100	44	16	75	84	75	21	89	82	18	20	73	29	39	65	84	47	68	34	40	39	67	48	94	20	69	47	75	80	37	84	104	68	38	45	31	18	82	16	0	51	53	61	34	53	77	
15	31	83	19	50	81	59	66	65	74	14	65	30	60	62	17	83	80	77	25	43	78	80	28	14	51	78	56	65	53	79	72	65	22	95	43	86	61	35	2	95	37	23	31	99	50	61	67	39	74	29	69	66	75	71	60	65	24	45	82	64	65	75	39	71	67	26	61	73	59	5	86	34	13	12	51	41	77	56	54	76	37	44	24	61	81	66	58	9	70	69	71	66	51	0	27	38	22	45	30	
29	42	60	8	23	60	65	39	49	50	41	54	46	67	38	14	65	55	54	44	24	55	57	2	14	42	70	34	38	43	52	81	41	46	76	22	67	34	16	25	74	13	46	9	80	23	56	50	16	50	43	73	41	56	49	41	70	41	30	56	57	41	48	50	71	40	43	44	48	34	31	63	21	34	32	24	17	51	67	27	59	22	26	16	36	57	40	41	34	59	69	44	69	53	27	0	11	20	20	29	
40	53	55	19	15	56	74	28	50	46	52	57	57	76	34	26	64	48	49	51	26	51	52	10	25	47	73	25	27	47	41	90	36	57	74	14	65	26	20	36	71	6	55	9	78	12	62	50	9	45	54	81	29	54	38	40	78	49	26	49	61	30	38	61	77	30	54	45	42	23	42	59	27	45	43	13	17	39	77	16	59	19	21	26	25	46	32	42	45	62	76	33	77	61	38	11	0	30	15	32	
13	22	63	18	38	59	45	56	43	54	35	43	26	47	43	8	61	61	57	47	23	57	60	22	12	29	57	55	56	31	69	61	46	31	73	42	64	47	17	21	74	33	45	30	77	40	41	45	36	55	24	54	60	54	69	39	50	45	50	64	43	60	62	30	53	53	24	39	54	54	22	65	13	19	18	40	25	69	46	43	54	41	46	5	55	76	51	36	22	48	51	59	50	34	22	20	30	0	30	43	
43	50	40	28	9	41	66	28	35	31	60	43	56	69	19	29	48	35	34	64	13	36	37	20	31	35	59	37	29	34	40	82	21	61	58	29	49	17	13	43	55	21	66	24	62	14	50	35	24	31	53	72	35	38	47	25	70	61	41	37	49	36	32	57	67	23	53	30	28	31	48	44	20	49	47	14	5	41	71	15	43	35	36	25	31	50	21	27	50	48	66	29	68	53	45	20	15	30	0	47	
43	60	87	25	47	88	87	54	79	78	36	83	60	88	66	35	95	81	82	24	54	84	85	28	31	70	98	35	52	71	65	101	69	52	106	26	97	58	45	29	103	27	31	23	110	42	84	80	26	78	59	96	49	85	49	71	92	22	20	82	85	48	68	68	96	62	56	74	75	42	35	91	49	43	42	44	46	62	86	47	89	16	22	42	44	62	64	70	40	88	94	61	93	77	30	29	32	43	47	0	
