nbClients: 100
ServiceTimes: 
0	0	0	0	0	0	0	0	0	0	0	0	0	0	0	0	0	0	0	0	0	0	0	0	0	0	0	0	0	0	0	0	0	0	0	0	0	0	0	0	0	0	0	0	0	0	0	0	0	0	0	0	0	0	0	0	0	0	0	0	0	0	0	0	0	0	0	0	0	0	0	0	0	0	0	0	0	0	0	0	0	0	0	0	0	0	0	0	0	0	0	0	0	0	0	0	0	0	0	0	
TravelTimes: 
18	50	32	82	36	91	27	44	79	33	26	57	49	96	55	78	50	96	67	49	28	33	13	20	27	71	48	73	70	38	35	51	60	72	44	28	18	59	74	8	78	39	80	58	44	27	32	35	47	4	53	13	69	34	77	71	10	81	57	52	37	75	61	20	42	56	34	68	71	82	17	103	42	26	47	39	55	28	67	25	68	77	19	31	60	61	55	67	20	12	60	57	20	76	37	15	23	68	52	70	
0	46	19	73	20	84	14	55	68	19	16	41	32	85	62	60	31	86	51	52	22	18	25	16	9	74	57	56	55	41	18	33	49	83	50	10	31	65	65	25	77	45	73	42	37	44	16	32	29	15	36	31	73	43	59	57	27	73	39	63	19	59	55	36	49	58	16	50	79	68	4	95	24	41	61	23	54	29	57	14	59	69	35	20	61	60	43	65	29	17	62	38	19	65	22	32	41	50	42	73	
46	0	63	34	60	41	33	41	33	62	62	36	66	49	35	62	62	48	45	17	23	33	63	31	51	33	36	52	41	19	57	55	20	57	27	45	41	34	27	58	31	25	29	37	11	53	59	15	42	51	39	62	35	33	65	39	60	31	62	43	39	47	11	46	28	18	41	52	49	44	42	53	57	76	52	34	11	22	21	32	20	28	68	28	18	16	22	20	70	59	21	55	30	31	30	65	56	49	16	32	
19	63	0	86	8	99	30	74	81	3	6	48	20	97	82	59	23	98	56	71	41	31	31	35	12	93	76	59	62	60	10	29	63	102	70	18	49	84	79	34	95	64	89	49	53	60	5	51	33	28	43	39	92	62	57	65	35	88	32	82	28	65	71	52	68	77	25	52	99	77	23	108	18	44	79	33	73	48	72	32	74	83	41	35	80	79	56	83	31	23	81	36	38	78	35	39	55	54	56	92	
73	34	86	0	80	14	59	73	7	84	87	41	82	14	64	57	76	14	42	47	53	55	94	62	74	49	67	46	34	53	77	67	23	82	59	68	76	60	7	91	33	58	13	41	37	87	81	48	55	82	47	95	54	67	62	29	93	6	72	74	58	37	23	81	60	44	61	51	72	23	70	21	74	109	84	53	38	56	15	59	14	7	101	53	40	37	30	31	101	89	44	63	62	9	51	97	91	47	31	49	
20	60	8	80	0	93	27	75	74	5	14	41	13	90	81	50	15	91	48	69	38	27	38	34	10	90	76	50	54	59	3	21	57	102	69	15	51	84	73	40	91	64	84	41	49	63	5	48	26	32	35	45	90	63	48	58	41	82	24	83	22	57	67	55	68	74	19	43	98	70	23	102	9	52	81	27	70	47	66	29	68	77	48	32	77	76	50	80	39	29	78	27	38	72	30	46	60	46	50	89	
84	41	99	14	93	0	70	76	21	97	99	55	95	17	64	71	90	15	56	50	63	67	104	72	87	46	69	60	48	59	90	81	36	80	62	80	83	60	19	100	28	63	12	55	47	93	94	56	69	92	61	104	52	72	76	43	102	11	86	75	71	50	30	88	64	45	74	65	70	36	81	12	87	118	87	65	41	64	27	70	25	15	110	64	41	38	43	31	111	99	44	77	71	23	63	106	97	61	42	47	
14	33	30	59	27	70	0	52	54	29	29	29	36	71	55	51	33	72	40	42	11	6	38	11	18	63	51	46	42	33	24	30	35	77	43	12	33	57	51	35	64	38	59	30	23	47	26	21	21	25	26	41	63	39	52	44	37	59	37	59	11	48	41	38	42	47	10	41	72	55	12	80	26	53	59	12	43	21	43	3	45	54	46	5	50	49	29	53	43	30	51	33	14	51	9	43	46	41	27	62	
55	41	74	73	75	76	52	0	74	75	69	72	87	87	14	99	85	87	83	26	41	56	55	42	65	36	7	90	81	23	73	82	61	27	14	62	26	19	67	49	51	16	64	73	46	24	72	36	71	48	72	49	31	12	101	79	50	69	89	8	63	87	51	26	13	30	62	88	27	85	51	88	78	60	11	61	35	31	62	48	61	66	53	51	35	37	61	44	62	57	31	85	38	72	57	51	31	86	55	35	
68	33	81	7	74	21	54	74	0	78	82	35	75	17	65	50	69	17	35	48	50	50	91	58	69	52	68	39	27	52	71	60	19	85	60	63	74	62	7	87	38	58	19	34	34	86	76	45	49	78	40	92	57	66	55	22	89	12	65	75	53	30	23	79	61	45	56	44	75	17	66	27	68	105	85	47	39	54	12	55	13	10	98	48	42	39	25	34	97	84	46	56	58	2	46	94	89	40	27	53	
19	62	3	84	5	97	29	75	78	0	9	46	17	95	81	56	20	96	53	70	40	30	34	34	11	92	76	56	59	60	7	26	60	102	69	17	50	84	77	36	93	64	87	46	51	61	3	50	31	29	40	42	91	62	53	62	38	86	29	82	25	62	70	53	68	76	22	49	98	75	23	106	14	47	79	31	72	48	69	31	72	81	44	34	79	78	54	82	34	25	80	33	38	76	33	42	57	51	54	91	
16	62	6	87	14	99	29	69	82	9	0	51	26	98	77	64	29	99	59	68	38	31	25	32	12	90	71	63	65	57	15	34	63	97	65	19	43	80	79	28	93	60	89	52	52	54	9	48	36	22	45	33	89	57	62	68	29	88	38	77	29	68	70	46	64	74	26	56	94	80	20	109	23	38	73	34	70	45	72	30	74	83	35	34	77	76	57	81	25	16	78	41	35	79	36	33	49	58	56	89	
41	36	48	41	41	55	29	72	35	46	51	0	40	50	71	26	34	51	11	53	33	23	66	39	38	69	69	17	13	49	38	25	21	93	60	32	60	70	36	65	62	56	49	1	27	74	43	36	15	54	5	70	72	61	29	16	67	45	31	77	21	18	36	66	60	55	25	15	86	29	40	62	33	82	82	18	48	43	30	32	33	41	75	26	55	52	15	53	71	58	58	22	41	32	20	72	75	13	20	69	
32	66	20	82	13	95	36	87	75	17	26	40	0	90	92	42	5	91	44	78	47	34	51	45	22	98	87	45	51	69	14	15	59	113	80	25	64	94	75	53	97	74	87	40	55	76	18	57	26	45	34	59	99	74	39	56	55	84	13	94	27	53	72	68	78	82	26	38	109	68	36	103	9	65	93	32	77	57	68	39	71	80	61	39	84	83	52	86	51	42	86	21	49	73	36	59	73	41	55	98	
85	49	97	14	90	17	71	87	17	95	98	50	90	0	78	60	84	2	47	61	67	67	108	75	86	61	81	50	39	68	87	75	36	95	73	79	90	74	21	104	44	73	25	49	51	102	92	62	64	95	55	109	67	82	65	34	106	19	79	88	69	40	37	95	75	58	72	55	85	24	83	15	83	122	98	64	52	70	29	72	28	21	115	65	54	51	41	45	114	101	58	70	75	19	63	111	105	51	44	62	
62	35	82	64	81	64	55	14	65	81	77	71	92	78	0	97	89	77	80	18	44	59	66	47	71	22	7	87	77	23	79	85	55	22	12	67	37	5	58	60	39	17	53	72	44	38	79	36	73	58	72	61	17	21	100	75	61	59	92	10	66	83	43	38	13	20	66	86	17	79	58	76	82	73	23	63	26	34	54	52	53	57	66	53	24	27	58	33	73	67	20	86	43	64	58	63	45	84	51	21	
60	62	59	57	50	71	51	99	50	56	64	26	42	60	97	0	37	62	17	79	58	46	85	62	53	94	96	11	24	76	49	29	45	120	87	50	84	97	54	85	85	83	68	25	53	99	55	63	31	75	26	91	97	87	5	28	87	62	28	104	41	20	60	90	87	81	44	11	112	36	61	75	41	100	108	40	74	68	51	55	54	59	95	50	80	77	40	77	88	76	84	23	65	49	43	92	98	13	46	94	
31	62	23	76	15	90	33	85	69	20	29	34	5	84	89	37	0	86	38	74	44	30	53	43	22	94	84	39	46	66	14	9	54	111	77	23	63	90	70	54	92	71	82	35	50	76	20	53	21	46	29	60	95	72	34	50	56	79	9	92	23	47	67	68	76	79	22	32	106	62	35	97	7	67	91	27	73	54	63	36	66	74	63	36	80	79	47	81	54	44	82	15	46	67	32	60	73	35	50	94	
86	48	98	14	91	15	72	87	17	96	99	51	91	2	77	62	86	0	49	61	67	68	108	76	87	60	80	52	41	67	88	76	36	93	73	80	90	73	21	105	42	72	24	51	51	101	93	62	66	95	57	109	65	81	67	36	107	18	81	87	70	42	37	95	74	57	73	57	84	26	84	13	84	123	98	65	51	70	29	72	28	20	115	66	53	50	42	44	114	102	57	72	76	20	63	111	105	53	44	60	
51	45	56	42	48	56	40	83	35	53	59	11	44	47	80	17	38	49	0	62	44	34	76	50	47	76	79	7	8	59	45	29	27	103	70	42	71	79	38	75	67	66	51	10	36	85	51	47	22	65	14	81	79	72	21	13	77	46	32	87	31	9	43	77	70	63	35	9	95	23	51	61	39	92	93	28	56	53	34	43	37	43	86	37	62	60	22	59	80	68	66	23	52	33	31	82	86	5	29	76	
52	17	71	47	69	50	42	26	48	70	68	53	78	61	18	79	74	61	62	0	30	44	62	36	59	22	20	69	58	11	66	69	37	40	12	54	35	17	41	57	29	12	38	53	26	43	67	20	56	51	54	60	21	22	82	56	59	42	76	27	51	64	25	39	13	6	51	68	33	60	48	62	68	73	37	47	9	23	36	39	35	40	65	38	11	12	39	20	70	60	10	69	33	46	42	62	48	66	33	21	
22	23	41	53	38	63	11	41	50	40	38	33	47	67	44	58	44	67	44	30	0	14	41	8	29	52	40	51	45	21	35	41	31	66	32	23	27	46	46	37	54	27	52	34	16	41	37	10	30	28	31	42	52	29	59	45	39	53	48	48	22	51	33	33	31	36	21	47	61	55	18	74	38	55	50	20	32	10	38	9	39	48	47	9	39	38	28	43	47	35	40	43	8	47	15	44	42	46	23	51	
18	33	31	55	27	67	6	56	50	30	31	23	34	67	59	46	30	68	34	44	14	0	43	16	19	64	55	40	37	36	24	26	31	81	47	13	38	60	48	41	64	42	57	24	22	53	27	23	15	31	20	47	65	44	46	38	43	56	33	62	7	42	40	44	46	48	8	35	75	50	17	77	24	58	64	6	43	25	40	9	42	51	52	5	50	49	25	53	48	35	52	28	19	47	4	48	52	35	24	64	
25	63	31	94	38	104	38	55	91	34	25	66	51	108	66	85	53	108	76	62	41	43	0	32	32	83	59	81	80	51	38	57	72	82	56	35	29	70	87	6	91	51	92	67	57	33	33	48	54	12	62	8	81	45	84	82	5	94	61	63	45	85	74	29	54	69	41	75	82	93	26	115	46	15	55	48	68	41	79	36	80	89	10	43	73	74	67	80	7	9	73	63	33	88	47	8	27	76	64	82	
16	31	35	62	34	72	11	42	58	34	32	39	45	75	47	62	43	76	50	36	8	16	32	0	24	58	42	56	51	25	32	41	39	68	35	20	22	49	54	28	61	29	60	40	24	36	32	17	32	19	36	34	57	29	63	52	31	61	48	49	22	57	42	27	33	42	21	51	64	62	12	83	36	46	48	22	39	13	46	7	48	57	39	13	45	45	35	50	38	27	46	44	3	56	19	35	36	51	31	57	
9	51	12	74	10	87	18	65	69	11	12	38	22	86	71	53	22	87	47	59	29	19	32	24	0	81	66	51	52	49	8	25	51	92	59	6	41	74	67	32	82	54	77	39	41	54	8	39	24	23	33	38	81	52	52	55	34	76	30	72	16	56	59	46	57	65	13	44	88	67	13	96	15	47	71	22	61	37	59	20	62	71	42	23	68	67	44	71	34	23	69	31	27	66	23	39	51	46	44	80	
74	33	93	49	90	46	63	36	52	92	90	69	98	61	22	94	94	60	76	22	52	64	83	58	81	0	29	83	71	33	87	88	49	34	28	75	55	17	45	78	18	31	36	69	44	60	89	42	75	73	72	80	6	39	97	67	79	43	96	32	71	77	33	58	30	16	72	84	24	68	70	57	89	93	46	67	21	45	44	61	42	42	85	59	14	16	54	18	91	82	12	88	55	51	62	82	66	81	48	1	
57	36	76	67	76	69	51	7	68	76	71	69	87	81	7	96	84	80	79	20	40	55	59	42	66	29	0	86	77	20	74	81	56	26	8	62	30	13	61	53	44	13	57	70	42	30	73	33	70	51	70	53	25	14	98	75	54	62	88	8	62	83	45	30	9	23	62	85	23	80	52	81	78	65	17	60	29	30	56	48	55	60	58	49	28	30	57	37	66	60	24	83	38	66	55	56	37	83	51	28	
56	52	59	46	50	60	46	90	39	56	63	17	45	50	87	11	39	52	7	69	51	40	81	56	51	83	86	0	13	67	48	30	34	110	77	46	77	87	43	80	73	73	57	16	43	92	54	54	26	70	20	86	86	79	15	17	82	51	32	94	36	10	49	83	77	70	39	7	102	26	56	65	41	97	100	34	63	60	40	49	43	48	91	43	70	67	29	66	85	73	73	24	58	38	37	87	92	5	36	83	
55	41	62	34	54	48	42	81	27	59	65	13	51	39	77	24	46	41	8	58	45	37	80	51	52	71	77	13	0	57	51	36	22	99	68	46	72	76	30	78	61	64	44	13	34	86	57	45	28	68	19	84	75	70	28	5	80	39	40	85	35	6	37	78	68	59	39	17	91	16	54	53	46	95	91	31	52	53	27	45	30	35	89	38	58	55	19	53	85	72	61	31	53	25	33	85	87	13	26	71	
41	19	60	53	59	59	33	23	52	60	57	49	69	68	23	76	66	67	59	11	21	36	51	25	49	33	20	67	57	0	56	62	38	45	11	44	24	24	46	45	41	6	46	50	23	34	57	13	50	40	50	48	32	14	78	56	47	50	69	28	43	64	30	29	10	18	43	65	39	63	37	71	59	61	33	40	18	12	40	30	39	46	54	30	22	23	38	30	58	49	22	63	22	50	35	50	38	63	32	32	
18	57	10	77	3	90	24	73	71	7	15	38	14	87	79	49	14	88	45	66	35	24	38	32	8	87	74	48	51	56	0	19	53	100	67	12	50	81	70	40	88	61	81	38	46	62	6	45	23	31	32	45	88	61	46	55	41	79	23	81	18	54	63	54	65	71	16	41	96	67	22	99	8	53	79	24	67	44	62	26	65	74	48	29	74	73	47	77	40	29	75	25	35	68	27	46	59	43	47	87	
33	55	29	67	21	81	30	82	60	26	34	25	15	75	85	29	9	76	29	69	41	26	57	41	25	88	81	30	36	62	19	0	46	107	73	23	62	86	61	57	85	68	74	25	44	76	25	49	13	48	20	63	90	70	27	41	59	70	7	89	19	38	59	68	72	73	20	23	101	52	35	88	11	72	90	21	67	51	55	34	58	66	67	32	74	72	39	74	59	48	77	6	44	58	26	64	74	26	42	88	
49	20	63	23	57	36	35	61	19	60	63	21	59	36	55	45	54	36	27	37	31	31	72	39	51	49	56	34	22	38	53	46	0	77	47	44	56	54	16	68	40	44	28	21	16	69	58	28	33	59	26	73	53	52	48	19	71	25	52	64	34	28	15	62	48	37	38	35	69	25	47	45	51	86	71	29	30	36	9	36	12	20	79	29	36	33	7	32	78	65	39	43	40	16	27	75	72	31	8	49	
83	57	102	82	102	80	77	27	85	102	97	93	113	95	22	120	111	93	103	40	66	81	82	68	92	34	26	110	99	45	100	107	77	0	34	88	54	23	77	76	52	39	69	94	66	50	99	58	95	76	94	76	28	39	122	96	77	76	114	19	88	105	63	53	35	40	88	109	10	99	79	91	104	86	28	85	47	56	75	74	73	75	80	75	42	45	80	50	89	84	38	109	64	83	80	78	57	106	73	33	
50	27	70	59	69	62	43	14	60	69	65	60	80	73	12	87	77	73	70	12	32	47	56	35	59	28	8	77	68	11	67	73	47	34	0	55	27	15	53	50	40	5	50	61	34	32	67	24	61	47	61	52	25	11	89	66	51	55	80	17	54	74	37	30	2	17	54	76	29	72	46	75	70	64	25	51	21	22	48	40	47	52	57	41	22	24	48	31	63	56	19	75	31	58	46	54	38	74	42	26	
10	45	18	68	15	80	12	62	63	17	19	32	25	79	67	50	23	80	42	54	23	13	35	20	6	75	62	46	46	44	12	23	44	88	55	0	40	69	60	35	76	49	70	33	34	53	14	33	19	25	27	41	75	49	49	49	37	69	29	69	10	50	52	44	53	59	7	40	84	61	12	90	16	50	68	15	55	32	53	14	55	64	45	17	62	61	38	65	38	26	63	28	23	60	17	42	51	41	37	74	
31	41	49	76	51	83	33	26	74	50	43	60	64	90	37	84	63	90	71	35	27	38	29	22	41	55	30	77	72	24	50	62	56	54	27	40	0	41	68	23	65	23	70	61	40	14	47	28	54	22	58	24	52	16	85	72	24	73	69	34	44	78	53	6	25	42	42	73	53	81	28	95	56	37	29	44	43	19	61	29	61	69	29	34	47	48	54	55	36	30	45	66	19	71	41	26	15	73	49	54	
65	34	84	60	84	60	57	19	62	84	80	70	94	74	5	97	90	73	79	17	46	60	70	49	74	17	13	87	76	24	81	86	54	23	15	69	41	0	55	64	33	20	49	71	43	43	81	37	73	62	72	66	12	25	99	73	66	55	93	15	67	82	40	43	17	17	67	86	15	76	61	72	84	78	28	64	24	36	52	54	50	53	71	54	20	23	57	29	78	71	16	87	46	61	59	68	50	83	50	15	
65	27	79	7	73	19	51	67	7	77	79	36	75	21	58	54	70	21	38	41	46	48	87	54	67	45	61	43	30	46	70	61	16	77	53	60	68	55	0	83	31	51	13	36	29	80	74	40	49	74	41	88	50	60	59	26	85	9	67	68	51	34	16	73	54	38	54	47	68	23	63	29	67	101	78	46	32	48	7	51	6	5	93	45	35	32	23	27	93	81	39	58	54	6	43	90	83	43	23	46	
25	58	34	91	40	100	35	49	87	36	28	65	53	104	60	85	54	105	75	57	37	41	6	28	32	78	53	80	78	45	40	57	68	76	50	35	23	64	83	0	86	46	88	65	53	28	35	43	54	10	61	6	75	39	84	80	2	89	62	57	44	83	70	23	48	63	41	75	76	90	24	111	47	18	49	47	63	36	75	33	76	85	10	40	68	68	64	75	13	11	67	63	29	84	45	7	22	75	60	76	
77	31	95	33	91	28	64	51	38	93	93	62	97	44	39	85	92	42	67	29	54	64	91	61	82	18	44	73	61	41	88	85	40	52	40	76	65	33	31	86	0	42	19	62	42	72	90	44	71	80	66	89	24	51	89	56	88	26	91	49	70	66	25	69	42	23	72	76	42	55	73	39	88	102	62	65	23	50	33	63	30	27	95	59	18	17	47	11	98	88	20	83	59	38	61	91	78	72	42	19	
45	25	64	58	64	63	38	16	58	64	60	56	74	73	17	83	71	72	66	12	27	42	51	29	54	31	13	73	64	6	61	68	44	39	5	49	23	20	51	46	42	0	50	57	30	30	61	20	56	42	56	48	29	9	84	63	47	54	75	21	49	70	35	27	4	19	49	71	34	69	41	75	65	61	27	46	21	17	46	35	45	51	53	36	24	25	45	32	59	51	22	70	26	56	41	50	36	69	38	30	
73	29	89	13	84	12	59	64	19	87	89	49	87	25	53	68	82	24	51	38	52	57	92	60	77	36	57	57	44	46	81	74	28	69	50	70	70	49	13	88	19	50	0	49	36	81	84	44	61	80	54	92	41	59	73	39	90	7	80	63	62	48	18	75	52	33	64	60	60	36	70	24	79	106	74	56	29	52	19	59	16	8	98	54	29	26	35	20	99	88	33	71	59	19	53	94	85	57	33	36	
42	37	49	41	41	55	30	73	34	46	52	1	40	49	72	25	35	51	10	53	34	24	67	40	39	69	70	16	13	50	38	25	21	94	61	33	61	71	36	65	62	57	49	0	27	75	44	37	15	55	6	71	72	62	28	16	68	45	31	78	22	17	37	67	61	55	26	14	87	28	41	62	34	83	83	18	49	43	30	33	33	41	76	27	55	53	15	53	72	59	59	22	42	32	21	73	76	12	21	69	
37	11	53	37	49	47	23	46	34	51	52	27	55	51	44	53	50	51	36	26	16	22	57	24	41	44	42	43	34	23	46	44	16	66	34	34	40	43	29	53	42	30	36	27	0	53	49	12	31	44	28	58	46	36	55	33	55	36	51	51	28	40	18	46	34	29	30	42	59	41	34	58	46	71	57	23	22	20	22	22	23	32	63	17	30	28	15	31	63	51	32	44	24	31	19	60	55	40	9	43	
44	53	60	87	63	93	47	24	86	61	54	74	76	102	38	99	76	101	85	43	41	53	33	36	54	60	30	92	86	34	62	76	69	50	32	53	14	43	80	28	72	30	81	75	53	0	59	41	68	31	72	26	55	21	99	86	28	84	82	32	58	92	64	8	30	49	56	88	51	94	41	105	69	36	22	59	52	33	73	43	73	81	30	49	54	56	68	63	40	38	52	80	33	83	55	28	7	87	62	58	
16	59	5	81	5	94	26	72	76	3	9	43	18	92	79	55	20	93	51	67	37	27	33	32	8	89	73	54	57	57	6	25	58	99	67	14	47	81	74	35	90	61	84	44	49	59	0	47	29	27	38	40	88	59	53	60	36	83	29	80	23	60	67	51	65	73	20	47	96	72	20	103	14	47	77	28	69	45	67	28	69	78	43	31	76	75	51	79	34	24	77	32	35	73	31	41	55	49	51	88	
32	15	51	48	48	56	21	36	45	50	48	36	57	62	36	63	53	62	47	20	10	23	48	17	39	42	33	54	45	13	45	49	28	58	24	33	28	37	40	43	44	20	44	37	12	41	47	0	36	36	36	48	42	25	64	45	45	46	56	41	30	52	26	34	24	26	31	51	52	53	28	68	47	61	45	27	22	8	33	19	33	42	53	17	29	28	27	33	55	44	30	50	15	43	22	50	43	50	21	41	
29	42	33	55	26	69	21	71	49	31	36	15	26	64	73	31	21	66	22	56	30	15	54	32	24	75	70	26	28	50	23	13	33	95	61	19	54	73	49	54	71	56	61	15	31	68	29	36	0	44	9	60	77	59	31	31	56	58	20	77	10	31	46	60	60	60	13	21	89	43	30	77	18	70	80	10	54	40	42	24	45	53	64	20	61	59	26	61	58	46	63	13	35	46	14	61	67	21	29	75	
15	51	28	82	32	92	25	48	78	29	22	54	45	95	58	75	46	95	65	51	28	31	12	19	23	73	51	70	68	40	31	48	59	76	47	25	22	62	74	10	80	42	80	55	44	31	27	36	44	0	50	16	71	37	74	70	12	81	53	56	34	73	61	24	45	58	31	65	74	80	14	103	39	27	51	36	56	29	66	23	67	77	20	30	62	62	54	68	19	9	62	53	20	75	35	17	27	65	51	72	
36	39	43	47	35	61	26	72	40	40	45	5	34	55	72	26	29	57	14	54	31	20	62	36	33	72	70	20	19	50	32	20	26	94	61	27	58	72	41	61	66	56	54	6	28	72	38	36	9	50	0	66	74	60	28	22	63	50	26	78	17	23	40	64	60	57	20	15	87	34	36	68	27	77	81	14	50	42	35	29	38	46	71	23	57	55	19	56	66	54	60	17	38	38	17	68	72	15	23	71	
31	62	39	95	45	104	41	49	92	42	33	70	59	109	61	91	60	109	81	60	42	47	8	34	38	80	53	86	84	48	45	63	73	76	52	41	24	66	88	6	89	48	92	71	58	26	40	48	60	16	66	0	77	40	90	85	4	94	68	57	50	89	74	23	49	66	47	81	76	96	30	116	53	13	48	52	66	40	80	39	81	90	5	45	71	72	69	78	13	16	70	69	33	89	50	2	19	81	65	78	
73	35	92	54	90	52	63	31	57	91	89	72	99	67	17	97	95	65	79	21	52	65	81	57	81	6	25	86	75	32	88	90	53	28	25	75	52	12	50	75	24	29	41	72	46	55	88	42	77	71	74	77	0	36	100	71	76	48	97	27	72	80	37	54	27	17	73	87	18	73	69	63	90	89	40	68	23	44	49	61	46	47	82	59	16	19	57	22	88	80	13	90	54	56	63	79	62	84	51	5	
43	33	62	67	63	72	39	12	66	62	57	61	74	82	21	87	72	81	72	22	29	44	45	29	52	39	14	79	70	14	61	70	52	39	11	49	16	25	60	39	51	9	59	62	36	21	59	25	59	37	60	40	36	0	89	69	40	63	77	20	50	77	44	18	9	28	50	76	37	77	39	84	65	53	21	49	30	18	54	36	53	60	45	38	33	35	51	42	52	46	31	72	25	64	44	43	26	74	45	38	
59	65	57	62	48	76	52	101	55	53	62	29	39	65	100	5	34	67	21	82	59	46	84	63	52	97	98	15	28	78	46	27	48	122	89	49	85	99	59	84	89	84	73	28	55	99	53	64	31	74	28	90	100	89	0	33	86	67	25	106	41	25	64	91	89	84	43	13	115	41	60	80	39	99	110	40	77	70	55	55	58	64	94	51	83	81	43	80	86	75	87	21	66	53	44	91	98	16	49	97	
57	39	65	29	58	43	44	79	22	62	68	16	56	34	75	28	50	36	13	56	45	38	82	52	55	67	75	17	5	56	55	41	19	96	66	49	72	73	26	80	56	63	39	16	33	86	60	45	31	70	22	85	71	69	33	0	82	34	45	83	38	9	34	78	66	56	42	22	88	12	56	48	50	97	90	34	49	53	23	46	26	31	90	39	55	52	18	50	87	74	58	36	53	20	34	87	87	18	24	68	
27	60	35	93	41	102	37	50	89	38	29	67	55	106	61	87	56	107	77	59	39	43	5	31	34	79	54	82	80	47	41	59	71	77	51	37	24	66	85	2	88	47	90	68	55	28	36	45	56	12	63	4	76	40	86	82	0	92	64	58	46	85	72	24	49	65	43	77	77	93	26	113	49	15	50	49	65	38	77	35	78	87	8	42	70	70	66	77	12	12	69	65	31	87	47	5	22	77	62	78	
73	31	88	6	82	11	59	69	12	86	88	45	84	19	59	62	79	18	46	42	53	56	94	61	76	43	62	51	39	50	79	70	25	76	55	69	73	55	9	89	26	54	7	45	36	84	83	46	58	81	50	94	48	63	67	34	92	0	76	69	60	42	20	78	56	39	63	55	66	29	70	21	76	107	80	54	33	54	16	59	13	4	100	53	35	32	32	26	100	88	39	67	60	13	52	96	88	51	31	43	
39	62	32	72	24	86	37	89	65	29	38	31	13	79	92	28	9	81	32	76	48	33	61	48	30	96	88	32	40	69	23	7	52	114	80	29	69	93	67	62	91	75	80	31	51	82	29	56	20	53	26	68	97	77	25	45	64	76	0	96	26	41	66	74	79	80	26	25	109	56	41	93	15	76	97	29	74	58	61	41	64	72	71	39	81	79	45	81	63	52	84	9	51	63	34	69	80	28	49	95	
63	43	82	74	83	75	59	8	75	82	77	77	94	88	10	104	92	87	87	27	48	62	63	49	72	32	8	94	85	28	81	89	64	19	17	69	34	15	68	57	49	21	63	78	51	32	80	41	77	56	78	57	27	20	106	83	58	69	96	0	70	91	52	34	17	30	69	93	19	88	59	87	85	68	13	67	36	37	63	55	62	67	61	57	34	37	65	43	70	65	30	91	45	73	62	59	39	91	59	31	
19	39	28	58	22	71	11	63	53	25	29	21	27	69	66	41	23	70	31	51	22	7	45	22	16	71	62	36	35	43	18	19	34	88	54	10	44	67	51	44	70	49	62	22	28	58	23	30	10	34	17	50	72	50	41	38	46	60	26	70	0	40	45	50	53	55	3	31	83	50	20	80	18	60	71	5	50	32	44	15	46	55	54	13	57	55	28	59	49	37	59	21	26	50	9	51	57	31	28	70	
59	47	65	37	57	50	48	87	30	62	68	18	53	40	83	20	47	42	9	64	51	42	85	57	56	77	83	10	6	64	54	38	28	105	74	50	78	82	34	83	66	70	48	17	40	92	60	52	31	73	23	89	80	77	25	9	85	42	41	91	40	0	43	84	74	65	43	16	97	16	59	55	48	100	97	36	58	59	32	50	35	39	94	44	64	61	25	59	89	77	67	32	59	29	38	90	93	12	32	77	
55	11	71	23	67	30	41	51	23	70	70	36	72	37	43	60	67	37	43	25	33	40	74	42	59	33	45	49	37	30	63	59	15	63	37	52	53	40	16	70	25	35	18	37	18	64	67	26	46	61	40	74	37	44	64	34	72	20	66	52	45	43	0	58	38	23	47	51	54	36	52	42	63	87	62	40	16	34	11	41	10	16	79	36	21	18	21	16	81	69	25	57	41	21	36	76	68	47	17	33	
36	46	52	81	55	88	38	26	79	53	46	66	68	95	38	90	68	95	77	39	33	44	29	27	46	58	30	83	78	29	54	68	62	53	30	44	6	43	73	23	69	27	75	67	46	8	51	34	60	24	64	23	54	18	91	78	24	78	74	34	50	84	58	0	27	46	48	79	53	87	33	100	60	35	26	50	47	25	67	35	67	75	27	40	50	52	60	59	36	32	49	72	25	77	46	25	9	79	54	56	
49	28	68	60	68	64	42	13	61	68	64	60	78	75	13	87	76	74	70	13	31	46	54	33	57	30	9	77	68	10	65	72	48	35	2	53	25	17	54	48	42	4	52	61	34	30	65	24	60	45	60	49	27	9	89	66	49	56	79	17	53	74	38	27	0	19	53	76	30	72	44	76	69	62	24	50	23	21	49	39	48	53	55	40	24	26	49	33	61	54	21	74	30	59	45	52	36	73	42	29	
58	18	77	44	74	45	47	30	45	76	74	55	82	58	20	81	79	57	63	6	36	48	69	42	65	16	23	70	59	18	71	73	37	40	17	59	42	17	38	63	23	19	33	55	29	49	73	26	60	58	57	66	17	28	84	56	65	39	80	30	55	65	23	46	19	0	56	70	31	59	54	57	73	79	41	51	7	29	35	45	33	37	72	43	5	7	41	14	76	67	4	73	39	44	46	68	55	67	34	15	
16	41	25	61	19	74	10	62	56	22	26	25	26	72	66	44	22	73	35	51	21	8	41	21	13	72	62	39	39	43	16	20	38	88	54	7	42	67	54	41	72	49	64	26	30	56	20	31	13	31	20	47	73	50	43	42	43	63	26	69	3	43	47	48	53	56	0	34	83	54	17	83	16	57	70	8	51	32	47	14	49	58	51	13	58	57	31	61	45	33	60	23	24	53	11	48	55	34	31	72	
50	52	52	51	43	65	41	88	44	49	56	15	38	55	86	11	32	57	9	68	47	35	75	51	44	84	85	7	17	65	41	23	35	109	76	40	73	86	47	75	76	71	60	14	42	88	47	51	21	65	15	81	87	76	13	22	77	55	25	93	31	16	51	79	76	70	34	0	101	32	51	70	34	91	97	29	63	57	42	44	45	52	85	39	70	67	30	67	79	67	73	16	54	42	32	82	87	4	36	84	
79	49	99	72	98	70	72	27	75	98	94	86	109	85	17	112	106	84	95	33	61	75	82	64	88	24	23	102	91	39	96	101	69	10	29	84	53	15	68	76	42	34	60	87	59	51	96	52	89	74	87	76	18	37	115	88	77	66	109	19	83	97	54	53	30	31	83	101	0	90	75	81	99	87	31	79	38	51	66	69	63	65	80	69	33	36	72	40	89	83	29	102	60	74	74	78	58	99	65	23	
68	44	77	23	70	36	55	85	17	75	80	29	68	24	79	36	62	26	23	60	55	50	93	62	67	68	80	26	16	63	67	52	25	99	72	61	81	76	23	90	55	69	36	28	41	94	72	53	43	80	34	96	73	77	41	12	93	29	56	88	50	16	36	87	72	59	54	32	90	0	67	39	62	108	96	45	52	61	24	57	26	27	101	50	57	54	26	50	98	86	61	47	63	17	46	98	96	28	32	69	
4	42	23	70	23	81	12	51	66	23	20	40	36	83	58	61	35	84	51	48	18	17	26	12	13	70	52	56	54	37	22	35	47	79	46	12	28	61	63	24	73	41	70	41	34	41	20	28	30	14	36	30	69	39	60	56	26	70	41	59	20	59	52	33	44	54	17	51	75	67	0	92	27	41	57	22	50	25	55	11	57	66	34	17	57	56	42	62	31	18	58	40	15	63	21	31	39	51	39	69	
95	53	108	21	102	12	80	88	27	106	109	62	103	15	76	75	97	13	61	62	74	77	115	83	96	57	81	65	53	71	99	88	45	91	75	90	95	72	29	111	39	75	24	62	58	105	103	68	77	103	68	116	63	84	80	48	113	21	93	87	80	55	42	100	76	57	83	70	81	39	92	0	96	129	99	75	53	76	37	81	35	26	121	75	53	50	52	43	122	110	56	84	82	30	73	118	109	66	53	58	
24	57	18	74	9	87	26	78	68	14	23	33	9	83	82	41	7	84	39	68	38	24	46	36	15	89	78	41	46	59	8	11	51	104	70	16	56	84	67	47	88	65	79	34	46	69	14	47	18	39	27	53	90	65	39	50	49	76	15	85	18	48	63	60	69	73	16	34	99	62	27	96	0	61	84	23	68	48	60	30	63	72	56	30	75	73	44	77	48	37	77	18	40	65	27	54	66	37	46	88	
41	76	44	109	52	118	53	60	105	47	38	82	65	122	73	100	67	123	92	73	55	58	15	46	47	93	65	97	95	61	53	72	86	86	64	50	37	78	101	18	102	61	106	83	71	36	47	61	70	27	77	13	89	53	99	97	15	107	76	68	60	100	87	35	62	79	57	91	87	108	41	129	61	0	58	64	80	53	93	51	94	103	7	58	84	85	82	92	13	24	83	78	47	102	62	11	29	92	78	91	
61	52	79	84	81	87	59	11	85	79	73	82	93	98	23	108	91	98	93	37	50	64	55	48	71	46	17	100	91	33	79	90	71	28	25	68	29	28	78	49	62	27	74	83	57	22	77	45	80	51	81	48	40	21	110	90	50	80	97	13	71	97	62	26	24	41	70	97	31	96	57	99	84	58	0	70	46	39	73	56	72	77	52	59	45	48	72	55	61	59	42	93	45	83	65	50	29	95	65	44	
23	34	33	53	27	65	12	61	47	31	34	18	32	64	63	40	27	65	28	47	20	6	48	22	22	67	60	34	31	40	24	21	29	85	51	15	44	64	46	47	65	46	56	18	23	59	28	27	10	36	14	52	68	49	40	34	49	54	29	67	5	36	40	50	50	51	8	29	79	45	22	75	23	64	70	0	45	30	38	15	41	50	57	10	53	51	22	54	53	40	55	23	25	44	5	54	58	29	23	66	
54	11	73	38	70	41	43	35	39	72	70	48	77	52	26	74	73	51	56	9	32	43	68	39	61	21	29	63	52	18	67	67	30	47	21	55	43	24	32	63	23	21	29	49	22	52	69	22	54	56	50	66	23	30	77	49	65	33	74	36	50	58	16	47	23	7	51	63	38	52	50	53	68	80	46	45	0	27	28	41	26	31	72	38	7	6	33	12	75	65	10	67	36	37	41	68	57	60	27	21	
29	22	48	56	47	64	21	31	54	48	45	43	57	70	34	68	54	70	53	23	10	25	41	13	37	45	30	60	53	12	44	51	36	56	22	32	19	36	48	36	50	17	52	43	20	33	45	8	40	29	42	40	44	18	70	53	38	54	58	37	32	59	34	25	21	29	32	57	51	61	25	76	48	53	39	30	27	0	41	18	42	50	45	19	33	33	35	39	48	38	33	53	10	51	25	42	35	56	29	44	
57	21	72	15	66	27	43	62	12	69	72	30	68	29	54	51	63	29	34	36	38	40	79	46	59	44	56	40	27	40	62	55	9	75	48	53	61	52	7	75	33	46	19	30	22	73	67	33	42	66	35	80	49	54	55	23	77	16	61	63	44	32	11	67	49	35	47	42	66	24	55	37	60	93	73	38	28	41	0	43	3	11	86	37	32	29	16	26	85	73	36	52	46	10	36	82	76	39	15	45	
14	32	32	59	29	70	3	48	55	31	30	32	39	72	52	55	36	72	43	39	9	9	36	7	20	61	48	49	45	30	26	34	36	74	40	14	29	54	51	33	63	35	59	33	22	43	28	19	24	23	29	39	61	36	55	46	35	59	41	55	15	50	41	35	39	45	14	44	69	57	11	81	30	51	56	15	41	18	43	0	45	55	44	6	48	47	31	51	42	29	49	37	10	52	12	40	43	44	28	60	
59	20	74	14	68	25	45	61	13	72	74	33	71	28	53	54	66	28	37	35	39	42	80	48	62	42	55	43	30	39	65	58	12	73	47	55	61	50	6	76	30	45	16	33	23	73	69	33	45	67	38	81	46	53	58	26	78	13	64	62	46	35	10	67	48	33	49	45	63	26	57	35	63	94	72	41	26	42	3	45	0	9	87	39	30	27	19	24	86	75	34	55	47	11	38	83	77	42	17	42	
69	28	83	7	77	15	54	66	10	81	83	41	80	21	57	59	74	20	43	40	48	51	89	57	71	42	60	48	35	46	74	66	20	75	52	64	69	53	5	85	27	51	8	41	32	81	78	42	53	77	46	90	47	60	64	31	87	4	72	67	55	39	16	75	53	37	58	52	65	27	66	26	72	103	77	50	31	50	11	55	9	0	95	49	33	30	27	25	96	84	37	63	56	10	47	92	84	48	27	43	
35	68	41	101	48	110	46	53	98	44	35	75	61	115	66	95	63	115	86	65	47	52	10	39	42	85	58	91	89	54	48	67	79	80	57	45	29	71	93	10	95	53	98	76	63	30	43	53	64	20	71	5	82	45	94	90	8	100	71	61	54	94	79	27	55	72	51	85	80	101	34	121	56	7	52	57	72	45	86	44	87	95	0	51	76	77	75	84	12	19	75	73	39	95	55	3	23	86	71	84	
20	28	35	53	32	64	5	51	48	34	34	26	39	65	53	50	36	66	37	38	9	5	43	13	23	59	49	43	38	30	29	32	29	75	41	17	34	54	45	40	59	36	54	27	17	49	31	17	20	30	23	45	59	38	51	39	42	53	39	57	13	44	36	40	40	43	13	39	69	50	17	75	30	58	59	10	38	19	37	6	39	49	51	0	45	44	24	48	48	36	47	34	15	45	6	47	49	38	22	58	
61	18	80	40	77	41	50	35	42	79	77	55	84	54	24	80	80	53	62	11	39	50	73	45	68	14	28	70	58	22	74	74	36	42	22	62	47	20	35	68	18	24	29	55	30	54	76	29	61	62	57	71	16	33	83	55	70	35	81	34	57	64	21	50	24	5	58	70	33	57	57	53	75	84	45	53	7	33	32	48	30	33	76	45	0	3	40	9	81	71	4	74	42	41	48	73	60	67	34	13	
60	16	79	37	76	38	49	37	39	78	76	52	83	51	27	77	79	50	60	12	38	49	74	45	67	16	30	67	55	23	73	72	33	45	24	61	48	23	32	68	17	25	26	53	28	56	75	28	59	62	55	72	19	35	81	52	70	32	79	37	55	61	18	52	26	7	57	67	36	54	56	50	73	85	48	51	6	33	29	47	27	30	77	44	3	0	37	7	81	71	7	72	42	37	46	74	61	64	31	16	
43	22	56	30	50	43	29	61	25	54	57	15	52	41	58	40	47	42	22	39	28	25	67	35	44	54	57	29	19	38	47	39	7	80	48	38	54	57	23	64	47	45	35	15	15	68	51	27	26	54	19	69	57	51	43	18	66	32	45	65	28	25	21	60	49	41	31	30	72	26	42	52	44	82	72	22	33	35	16	31	19	27	75	24	40	37	0	38	73	60	43	36	36	22	21	71	69	26	6	54	
65	20	83	31	80	31	53	44	34	82	81	53	86	45	33	77	81	44	59	20	43	53	80	50	71	18	37	66	53	30	77	74	32	50	31	65	55	29	27	75	11	32	20	53	31	63	79	33	61	68	56	78	22	42	80	50	77	26	81	43	59	59	16	59	33	14	61	67	40	50	62	43	77	92	55	54	12	39	26	51	24	25	84	48	9	7	38	0	87	77	13	73	48	34	50	81	68	64	32	18	
29	70	31	101	39	111	43	62	97	34	25	71	51	114	73	88	54	114	80	70	47	48	7	38	34	91	66	85	85	58	40	59	78	89	63	38	36	78	93	13	98	59	99	72	63	40	34	55	58	19	66	13	88	52	86	87	12	100	63	70	49	89	81	36	61	76	45	79	89	98	31	122	48	13	61	53	75	48	85	42	86	96	12	48	81	81	73	87	0	12	80	65	40	94	52	12	33	80	70	89	
17	59	23	89	29	99	30	57	84	25	16	58	42	101	67	76	44	102	68	60	35	35	9	27	23	82	60	73	72	49	29	48	65	84	56	26	30	71	81	11	88	51	88	59	51	38	24	44	46	9	54	16	80	46	75	74	12	88	52	65	37	77	69	32	54	67	33	67	83	86	18	110	37	24	59	40	65	38	73	29	75	84	19	36	71	71	60	77	12	0	71	54	29	82	39	16	33	68	58	81	
62	21	81	44	78	44	51	31	46	80	78	58	86	58	20	84	82	57	66	10	40	52	73	46	69	12	24	73	61	22	75	77	39	38	19	63	45	16	39	67	20	22	33	59	32	52	77	30	63	62	60	70	13	31	87	58	69	39	84	30	59	67	25	49	21	4	60	73	29	61	58	56	77	83	42	55	10	33	36	49	34	37	75	47	4	7	43	13	80	71	0	76	43	45	50	72	58	70	37	11	
38	55	36	63	27	77	33	85	56	33	41	22	21	70	86	23	15	72	23	69	43	28	63	44	31	88	83	24	31	63	25	6	43	109	75	28	66	87	58	63	83	70	71	22	44	80	32	50	13	53	17	69	90	72	21	36	65	67	9	91	21	32	57	72	74	73	23	16	102	47	40	84	18	78	93	23	67	53	52	37	55	63	73	34	74	72	36	73	65	54	76	0	48	54	28	70	79	20	40	88	
19	30	38	62	38	71	14	38	58	38	35	41	49	75	43	65	46	76	52	33	8	19	33	3	27	55	38	58	53	22	35	44	40	64	31	23	19	46	54	29	59	26	59	42	24	33	35	15	35	20	38	33	54	25	66	53	31	60	51	45	26	59	41	25	30	39	24	54	60	63	15	82	40	47	45	25	36	10	46	10	47	56	39	15	42	42	36	48	40	29	43	48	0	56	21	35	34	53	32	54	
65	31	78	9	72	23	51	72	2	76	79	32	73	19	64	49	67	20	33	46	47	47	88	56	66	51	66	38	25	50	68	58	16	83	58	60	71	61	6	84	38	56	19	32	31	83	73	43	46	75	38	89	56	64	53	20	87	13	63	73	50	29	21	77	59	44	53	42	74	17	63	30	65	102	83	44	37	51	10	52	11	10	95	45	41	37	22	34	94	82	45	54	56	0	43	91	86	38	24	52	
22	30	35	51	30	63	9	57	46	33	36	20	36	63	58	43	32	63	31	42	15	4	47	19	23	62	55	37	33	35	27	26	27	80	46	17	41	59	43	45	61	41	53	21	19	55	31	22	14	35	17	50	63	44	44	34	47	52	34	62	9	38	36	46	45	46	11	32	74	46	21	73	27	62	65	5	41	25	36	12	38	47	55	6	48	46	21	50	52	39	50	28	21	43	0	52	55	32	20	61	
32	65	39	97	46	106	43	51	94	42	33	72	59	111	63	92	60	111	82	62	44	48	8	35	39	82	56	87	85	50	46	64	75	78	54	42	26	68	90	7	91	50	94	73	60	28	41	50	61	17	68	2	79	43	91	87	5	96	69	59	51	90	76	25	52	68	48	82	78	98	31	118	54	11	50	54	68	42	82	40	83	92	3	47	73	74	71	81	12	16	72	70	35	91	52	0	21	82	67	81	
41	56	55	91	60	97	46	31	89	57	49	75	73	105	45	98	73	105	86	48	42	52	27	36	51	66	37	92	87	38	59	74	72	57	38	51	15	50	83	22	78	36	85	76	55	7	55	43	67	27	72	19	62	26	98	87	22	88	80	39	57	93	68	9	36	55	55	87	58	96	39	109	66	29	29	58	57	35	76	43	77	84	23	49	60	61	69	68	33	33	58	79	34	86	55	21	0	87	64	64	
50	49	54	47	46	61	41	86	40	51	58	13	41	51	84	13	35	53	5	66	46	35	76	51	46	81	83	5	13	63	43	26	31	106	74	41	73	83	43	75	72	69	57	12	40	87	49	50	21	65	15	81	84	74	16	18	77	51	28	91	31	12	47	79	73	67	34	4	99	28	51	66	37	92	95	29	60	56	39	44	42	48	86	38	67	64	26	64	80	68	70	20	53	38	32	82	87	0	33	81	
42	16	56	31	50	42	27	55	27	54	56	20	55	44	51	46	50	44	29	33	23	24	64	31	44	48	51	36	26	32	47	42	8	73	42	37	49	50	23	60	42	38	33	21	9	62	51	21	29	51	23	65	51	45	49	24	62	31	49	59	28	32	17	54	42	34	31	36	65	32	39	53	46	78	65	23	27	29	15	28	17	27	71	22	34	31	6	32	70	58	37	40	32	24	20	67	64	33	0	48	
73	32	92	49	89	47	62	35	53	91	89	69	98	62	21	94	94	60	76	21	51	64	82	57	80	1	28	83	71	32	87	88	49	33	26	74	54	15	46	76	19	30	36	69	43	58	88	41	75	72	71	78	5	38	97	68	78	43	95	31	70	77	33	56	29	15	72	84	23	69	69	58	88	91	44	66	21	44	45	60	42	43	84	58	13	16	54	18	89	81	11	88	54	52	61	81	64	81	48	0	
