nbClients: 100
ServiceTimes: 
0	0	0	0	0	0	0	0	0	0	0	0	0	0	0	0	0	0	0	0	0	0	0	0	0	0	0	0	0	0	0	0	0	0	0	0	0	0	0	0	0	0	0	0	0	0	0	0	0	0	0	0	0	0	0	0	0	0	0	0	0	0	0	0	0	0	0	0	0	0	0	0	0	0	0	0	0	0	0	0	0	0	0	0	0	0	0	0	0	0	0	0	0	0	0	0	0	0	0	0	
TravelTimes: 
85	89	65	25	78	46	41	44	82	40	113	50	49	2	65	14	82	81	32	75	71	73	37	27	57	97	80	57	84	41	41	94	78	85	102	78	70	72	88	11	73	42	7	31	56	57	49	109	26	101	96	120	62	63	104	70	20	65	20	96	35	75	71	44	81	107	61	112	56	43	9	17	100	109	67	82	89	76	40	84	92	45	37	110	82	70	11	108	66	111	79	55	65	61	77	54	103	27	88	82	
0	16	22	80	53	52	45	61	62	66	27	65	42	88	46	78	52	37	67	56	64	27	58	72	28	31	46	66	10	52	62	45	45	46	18	7	58	35	70	94	62	48	79	63	64	31	67	28	61	21	12	34	39	25	24	52	67	29	66	31	51	28	53	44	51	25	24	27	47	45	94	76	15	23	51	35	7	36	52	41	7	55	65	24	22	61	75	28	20	27	23	62	39	28	48	66	25	74	49	50	
16	0	24	79	69	48	48	73	48	77	32	77	40	91	36	84	68	23	75	44	52	18	56	70	36	48	62	79	26	50	58	29	61	62	30	18	74	50	55	96	78	57	82	71	77	42	60	40	67	13	25	40	52	26	15	68	72	24	71	14	56	44	68	44	68	19	32	36	59	53	97	82	16	24	40	52	23	24	61	57	18	51	75	25	9	76	79	20	30	24	39	55	30	39	35	78	14	72	33	36	
22	24	0	58	56	29	24	50	48	54	49	56	19	67	27	59	57	28	52	41	46	14	35	49	13	48	51	59	26	30	39	41	49	53	41	16	57	37	57	73	62	34	58	47	57	21	45	50	42	36	34	57	35	2	39	52	48	10	47	35	32	34	53	21	56	42	10	50	40	30	73	57	35	44	33	43	28	24	38	48	29	32	52	45	20	60	55	43	13	46	31	42	20	20	34	58	39	51	40	38	
80	79	58	0	90	31	37	59	60	57	108	66	39	26	48	35	93	65	48	54	49	61	22	8	55	100	90	73	82	28	21	77	87	94	99	74	84	78	66	24	87	50	20	45	71	59	26	107	36	92	92	115	69	56	94	82	33	54	30	83	39	79	83	36	92	98	59	108	66	49	26	37	93	102	48	88	86	61	50	91	87	28	53	102	70	84	28	99	64	103	81	33	50	62	58	70	93	6	70	63	
53	69	56	90	0	75	56	35	104	40	69	31	65	81	83	65	4	84	47	97	101	70	75	83	45	34	8	26	44	71	82	96	8	11	55	51	10	19	113	90	11	40	76	47	25	37	92	54	54	74	52	71	23	57	76	8	59	66	61	84	51	25	7	62	3	76	46	63	24	41	88	62	66	70	88	19	50	81	40	15	56	78	42	71	72	13	67	80	43	77	30	92	76	37	91	28	78	85	96	95	
52	48	29	31	75	0	20	55	37	55	78	62	11	48	19	47	77	35	49	30	29	30	9	23	32	76	73	67	55	6	10	48	70	76	70	45	73	59	46	51	77	39	39	44	65	39	17	80	35	61	64	85	52	27	63	69	37	23	35	52	29	58	70	13	76	67	34	79	53	35	52	47	62	71	21	67	58	30	41	72	58	3	52	72	39	74	40	67	39	72	58	16	19	40	31	65	62	25	42	36	
45	48	24	37	56	20	0	35	55	37	72	42	13	43	34	36	58	45	32	47	48	34	19	29	17	62	54	48	44	15	25	59	51	58	62	38	53	42	64	49	57	19	34	26	45	22	35	70	20	60	56	79	33	22	63	49	24	26	23	57	10	42	50	7	57	66	21	72	33	15	49	34	59	68	38	51	49	40	22	55	52	21	34	69	42	54	30	68	26	70	43	36	29	24	45	46	63	32	55	50	
61	73	50	59	35	55	35	0	91	5	86	7	48	46	69	30	39	77	12	83	84	65	51	54	37	60	38	13	55	49	58	91	36	43	73	56	26	34	100	55	29	17	43	14	12	31	69	76	22	82	68	91	25	50	85	26	26	57	28	85	26	39	27	43	38	86	41	82	16	21	53	27	77	84	73	43	62	73	13	43	67	56	7	85	70	26	34	89	43	89	45	71	64	34	80	11	86	56	89	85	
62	48	48	60	104	37	55	91	0	92	79	97	42	84	22	85	105	25	87	8	11	35	45	55	59	93	99	102	70	44	41	25	97	101	78	58	104	86	9	84	108	74	75	81	100	67	34	88	73	58	73	87	82	47	58	99	75	38	73	40	65	82	100	48	104	62	58	84	85	70	86	84	64	71	17	91	69	25	77	96	65	38	89	71	39	106	77	61	61	67	79	27	28	67	13	101	55	56	17	12	
66	77	54	57	40	55	37	5	92	0	91	10	50	42	71	26	44	80	8	84	85	68	50	52	41	65	44	17	60	49	58	94	41	49	78	60	31	39	101	51	33	20	39	12	16	35	68	82	21	86	73	96	30	53	89	32	23	60	26	89	26	45	33	44	43	91	45	88	22	24	49	23	82	89	75	48	67	75	16	49	72	56	3	90	74	30	30	94	47	94	50	71	66	38	82	14	90	54	91	87	
27	32	49	108	69	78	72	86	79	91	0	88	68	116	68	105	66	54	93	75	84	49	85	99	56	36	61	87	30	79	88	56	61	58	14	34	77	54	86	122	80	74	107	89	85	57	92	17	88	21	18	8	61	52	21	71	94	54	94	39	78	47	71	71	66	17	51	7	70	71	122	103	15	8	72	50	24	56	78	54	20	81	90	8	41	80	102	20	47	13	41	86	62	54	66	88	24	101	63	67	
65	77	56	66	31	62	42	7	97	10	88	0	55	52	76	36	35	83	18	89	91	70	58	61	42	59	36	7	58	56	65	97	33	41	74	60	21	34	106	61	23	23	49	21	6	35	76	77	29	86	70	92	26	55	89	23	33	63	35	90	33	40	24	49	34	90	45	84	18	27	59	33	80	87	80	42	65	79	20	41	70	63	13	88	75	20	40	93	47	92	46	78	70	38	86	4	90	63	95	91	
42	40	19	39	65	11	13	48	42	50	68	55	0	52	21	47	67	33	45	34	36	24	16	30	21	65	62	60	44	10	20	47	59	65	60	35	63	49	51	56	68	31	42	39	58	28	28	69	32	53	54	76	42	17	56	59	36	16	34	47	23	47	60	6	66	59	23	69	44	27	56	46	53	63	25	56	47	28	34	61	48	14	47	63	33	65	40	60	28	64	47	26	17	29	32	58	55	32	42	37	
88	91	67	26	81	48	43	46	84	42	116	52	52	0	67	16	84	83	34	77	73	76	39	29	60	100	83	59	87	43	43	97	80	88	105	81	72	75	90	9	75	45	9	33	58	60	50	112	29	104	99	123	64	66	107	73	23	68	22	99	38	78	73	46	83	110	64	115	58	46	7	19	103	112	69	84	92	78	43	86	95	47	39	112	85	72	14	111	69	114	81	57	67	63	79	56	106	28	90	84	
46	36	27	48	83	19	34	69	22	71	68	76	21	67	0	66	84	17	66	14	18	19	28	40	37	75	78	80	52	25	26	29	76	80	64	41	82	65	31	69	87	52	58	60	78	46	25	74	52	49	58	76	60	26	50	78	55	17	53	36	44	61	78	26	83	54	37	71	63	48	71	65	52	61	5	71	53	13	55	76	51	20	68	61	26	84	59	54	40	59	59	18	7	46	12	79	48	42	23	17	
78	84	59	35	65	47	36	30	85	26	105	36	47	16	66	0	69	80	18	77	75	70	39	34	49	86	68	43	75	41	44	94	65	73	93	71	56	60	92	25	59	31	15	18	42	48	54	99	17	96	87	112	50	58	99	57	11	62	13	93	27	64	58	41	68	101	54	103	43	34	23	3	93	102	68	70	81	75	29	72	85	47	23	103	78	56	8	103	58	105	68	59	64	51	78	40	98	34	89	83	
52	68	57	93	4	77	58	39	105	44	66	35	67	84	84	69	0	84	50	97	102	70	77	86	46	31	5	30	42	73	84	95	7	8	52	50	14	19	114	93	15	43	80	51	30	38	94	51	57	72	50	68	25	58	75	12	62	67	64	83	54	24	11	64	1	74	46	60	27	44	92	66	64	68	89	17	48	81	43	12	54	80	46	69	71	17	71	78	44	75	29	93	77	38	91	32	77	88	96	95	
37	23	28	65	84	35	45	77	25	80	54	83	33	83	17	80	84	0	76	21	30	13	44	58	41	68	78	87	46	40	43	14	76	79	53	34	86	65	33	86	90	60	74	71	85	49	43	63	65	33	48	62	63	28	34	80	69	19	67	18	55	60	81	39	83	38	39	59	68	56	87	79	39	46	20	69	44	5	64	74	40	37	77	46	14	88	73	38	40	44	56	36	16	48	12	86	32	59	12	13	
67	75	52	48	47	49	32	12	87	8	93	18	45	34	66	18	50	76	0	79	79	65	44	44	39	70	50	25	62	43	50	91	47	55	80	60	38	43	95	43	41	18	31	5	24	35	61	85	14	86	74	98	33	51	89	38	15	57	18	87	21	48	39	39	49	91	43	90	26	22	41	15	82	90	69	53	68	72	14	54	73	50	5	91	72	38	22	93	47	94	53	65	62	39	77	22	89	46	87	82	
56	44	41	54	97	30	47	83	8	84	75	89	34	77	14	77	97	21	79	0	8	29	38	48	51	87	92	94	64	36	34	26	90	94	74	52	96	78	17	77	101	66	68	73	92	60	28	84	65	55	68	84	74	39	56	92	67	30	65	39	57	75	92	40	97	60	51	80	77	62	79	77	60	68	9	84	63	20	69	89	61	30	81	68	35	99	69	59	54	65	72	20	20	60	9	93	53	49	17	10	
64	52	46	49	101	29	48	84	11	85	84	91	36	73	18	75	102	30	79	8	0	37	36	44	56	94	97	96	71	35	30	34	94	99	82	59	100	83	17	73	104	67	64	74	94	64	23	92	65	64	76	92	78	45	64	96	66	36	64	47	58	80	96	41	101	68	55	88	80	64	75	75	68	76	13	90	71	28	70	95	69	29	82	76	43	102	67	68	59	74	78	16	26	64	18	94	62	45	26	19	
27	18	14	61	70	30	34	65	35	68	49	70	24	76	19	70	70	13	65	29	37	0	39	53	28	57	65	73	34	33	40	26	62	66	45	23	72	51	44	80	76	47	66	60	71	36	42	55	54	31	39	57	49	14	33	67	58	8	57	23	44	47	67	29	70	37	25	52	55	43	80	68	33	42	24	56	34	10	51	61	32	33	65	42	9	74	64	37	26	42	43	37	13	34	21	72	31	55	26	25	
58	56	35	22	75	9	19	51	45	50	85	58	16	39	28	39	77	44	44	38	36	39	0	14	35	80	73	64	60	5	7	57	71	77	77	51	71	61	53	41	75	36	30	38	62	41	17	86	29	70	70	93	52	33	72	68	30	31	27	61	25	61	69	15	76	75	38	86	52	34	43	39	70	79	30	70	64	39	38	74	65	8	47	80	48	72	31	76	43	80	61	21	28	43	40	62	70	16	51	45	
72	70	49	8	83	23	29	54	55	52	99	61	30	29	40	34	86	58	44	48	44	53	14	0	47	92	83	68	73	19	14	70	80	87	90	65	78	71	61	29	81	43	21	40	66	51	21	99	31	84	84	107	62	47	86	75	29	45	26	75	32	72	76	28	85	89	50	100	59	42	31	35	84	93	41	80	77	53	44	84	79	20	49	94	62	78	26	90	56	94	73	28	42	54	51	65	85	2	63	56	
28	36	13	55	45	32	17	37	59	41	56	42	21	60	37	49	46	41	39	51	56	28	35	47	0	44	41	45	27	30	41	55	38	44	45	21	45	27	68	66	49	21	51	35	43	8	49	52	32	47	38	62	22	13	50	40	38	22	37	48	22	26	41	20	45	52	4	55	26	17	66	47	43	52	43	35	32	37	25	40	35	35	39	53	33	47	46	54	9	55	26	47	31	8	46	44	50	49	53	51	
31	48	48	100	34	76	62	60	93	65	36	59	65	100	75	86	31	68	70	87	94	57	80	92	44	0	26	57	23	74	85	77	27	23	23	34	43	26	101	107	46	54	93	68	55	40	93	20	70	46	24	37	36	50	49	38	76	57	77	61	63	21	38	64	31	47	42	29	43	53	107	83	38	39	80	17	25	68	57	19	30	79	66	40	54	46	85	51	37	46	18	90	68	37	79	58	51	94	80	82	
46	62	51	90	8	73	54	38	99	44	61	36	62	83	78	68	5	78	50	92	97	65	73	83	41	26	0	32	36	69	80	90	3	5	47	45	17	13	109	92	19	40	78	49	31	33	89	46	55	66	45	63	21	52	69	12	60	61	62	77	51	18	12	59	5	68	41	55	24	41	90	65	58	62	84	11	42	75	40	7	49	75	45	63	65	20	69	72	38	69	23	89	71	33	86	33	71	85	91	90	
66	79	59	73	26	67	48	13	102	17	87	7	60	59	80	43	30	87	25	94	96	73	64	68	45	57	32	0	58	62	71	100	30	36	73	61	15	32	111	68	17	29	56	28	2	37	82	75	36	87	69	91	27	59	90	19	40	67	42	92	39	39	19	55	29	91	48	82	19	32	66	40	81	87	85	39	65	83	26	38	71	69	20	88	78	14	47	94	49	93	45	84	75	40	91	3	91	70	99	96	
10	26	26	82	44	55	44	55	70	60	30	58	44	87	52	75	42	46	62	64	71	34	60	73	27	23	36	58	0	55	65	55	35	36	18	11	49	26	78	93	53	44	78	58	56	27	71	25	58	30	12	36	31	28	32	43	64	35	64	41	48	19	43	45	42	33	23	28	39	41	93	72	23	29	57	25	7	44	47	31	13	58	60	30	31	52	72	36	18	35	13	68	45	23	56	58	34	76	58	59	
52	50	30	28	71	6	15	49	44	49	79	56	10	43	25	41	73	40	43	36	35	33	5	19	30	74	69	62	55	0	11	53	66	72	71	46	68	56	52	46	72	33	33	38	60	36	20	80	29	64	64	87	48	27	66	65	31	26	28	56	23	56	65	10	72	70	32	80	48	30	47	40	64	73	27	65	58	35	36	69	59	7	46	74	43	69	34	70	37	74	56	21	24	38	37	60	65	22	48	42	
62	58	39	21	82	10	25	58	41	58	88	65	20	43	26	44	84	43	50	34	30	40	7	14	41	85	80	71	65	11	0	55	77	84	81	55	78	67	48	43	82	43	34	45	69	47	10	90	36	71	74	96	59	37	73	75	36	33	34	61	32	67	76	21	83	77	43	89	59	41	45	45	72	82	26	76	68	39	45	80	68	7	54	82	49	80	37	77	48	82	67	14	28	49	37	69	72	16	48	41	
45	29	41	77	96	48	59	91	25	94	56	97	47	97	29	94	95	14	91	26	34	26	57	70	55	77	90	100	55	53	55	0	88	90	58	45	98	77	30	99	102	74	87	85	98	63	53	68	79	35	54	64	76	41	35	93	83	33	81	17	69	71	93	53	95	39	52	62	81	70	100	93	42	48	29	79	52	19	78	85	47	50	91	48	24	101	87	37	53	44	67	45	30	61	18	99	32	71	8	15	
45	61	49	87	8	70	51	36	97	41	61	33	59	80	76	65	7	76	47	90	94	62	71	80	38	27	3	30	35	66	77	88	0	7	47	43	16	11	106	89	19	37	75	47	29	31	87	46	52	65	44	63	18	50	68	11	57	59	59	75	48	16	10	57	7	68	39	55	21	38	87	62	57	62	81	11	41	73	37	8	48	72	43	63	64	19	66	71	36	69	21	86	69	30	84	32	70	82	89	87	
46	62	53	94	11	76	58	43	101	49	58	41	65	88	80	73	8	79	55	94	99	66	77	87	44	23	5	36	36	72	84	90	7	0	44	45	21	16	110	96	23	44	82	54	36	36	93	43	59	65	43	60	25	54	68	17	65	63	66	77	55	19	17	63	8	67	43	52	29	45	95	69	57	60	86	10	41	77	45	5	47	78	50	61	66	24	74	70	40	67	23	92	73	35	87	38	70	89	92	91	
18	30	41	99	55	70	62	73	78	78	14	74	60	105	64	93	52	53	80	74	82	45	77	90	45	23	47	73	18	71	81	58	47	44	0	25	63	40	86	111	66	62	97	77	72	45	86	10	76	25	6	18	48	43	26	57	82	48	82	42	67	33	57	62	52	24	41	10	56	59	111	91	16	16	69	36	13	54	65	40	13	74	77	17	39	66	91	28	36	23	28	81	57	42	65	74	29	93	64	66	
7	18	16	74	51	45	38	56	58	60	34	60	35	81	41	71	50	34	60	52	59	23	51	65	21	34	45	61	11	46	55	45	43	45	25	0	55	32	67	87	59	42	72	56	59	25	61	34	54	26	18	41	34	18	29	49	60	24	59	32	44	26	50	37	50	30	17	34	42	38	87	69	21	30	46	34	12	33	45	40	14	48	59	31	21	58	68	33	13	34	21	57	34	22	44	61	30	67	47	47	
58	74	57	84	10	73	53	26	104	31	77	21	63	72	82	56	14	86	38	96	100	72	71	78	45	43	17	15	49	68	78	98	16	21	63	55	0	23	113	81	4	35	69	40	15	36	89	63	47	79	60	79	22	58	82	6	52	67	54	88	46	30	6	59	14	83	47	71	19	37	80	53	72	78	87	27	56	82	33	24	62	75	33	79	75	3	60	86	45	84	36	89	76	37	92	18	84	79	98	96	
35	50	37	78	19	59	42	34	86	39	54	34	49	75	65	60	19	65	43	78	83	51	61	71	27	26	13	32	26	56	67	77	11	16	40	32	23	0	95	83	27	30	68	42	31	20	76	42	45	56	37	58	10	38	59	17	51	48	52	65	39	7	17	46	18	59	27	50	17	29	82	57	49	55	70	9	33	62	31	13	39	62	40	56	53	26	60	62	24	61	13	75	57	19	72	33	60	73	77	76	
70	55	57	66	113	46	64	100	9	101	86	106	51	90	31	92	114	33	95	17	17	44	53	61	68	101	109	111	78	52	48	30	106	110	86	67	113	95	0	90	118	83	82	90	109	77	40	96	81	65	81	94	91	56	65	109	83	47	80	47	74	91	109	57	113	69	67	91	94	79	92	92	71	78	26	100	77	34	86	106	73	45	98	78	47	115	84	67	70	74	88	33	37	76	22	110	62	62	23	19	
94	96	73	24	90	51	49	55	84	51	122	61	56	9	69	25	93	86	43	77	73	80	41	29	66	107	92	68	93	46	43	99	89	96	111	87	81	83	90	0	84	53	15	42	67	67	50	119	37	109	105	129	73	71	112	81	31	72	30	102	45	86	82	51	92	115	70	121	67	54	2	28	108	117	70	93	99	81	51	95	101	49	48	118	89	81	22	116	75	119	89	57	70	71	81	65	111	28	92	85	
62	78	62	87	11	77	57	29	108	33	80	23	68	75	87	59	15	90	41	101	104	76	75	81	49	46	19	17	53	72	82	102	19	23	66	59	4	27	118	84	0	39	72	43	17	41	93	65	50	83	63	82	27	62	86	9	55	71	57	92	50	33	9	63	15	86	51	74	23	41	82	56	76	81	92	30	60	86	37	26	66	79	36	82	79	3	63	89	49	87	39	93	80	42	96	19	88	83	102	100	
48	57	34	50	40	39	19	17	74	20	74	23	31	45	52	31	43	60	18	66	67	47	36	43	21	54	40	29	44	33	43	74	37	44	62	42	35	30	83	53	39	0	38	14	26	17	54	67	15	67	56	80	19	33	70	32	21	40	22	69	11	33	33	26	42	72	25	72	16	4	52	29	63	72	56	39	50	55	4	42	55	40	18	73	54	36	30	75	28	76	36	55	46	20	63	27	71	45	71	67	
79	82	58	20	76	39	34	43	75	39	107	49	42	9	58	15	80	74	31	68	64	66	30	21	51	93	78	56	78	33	34	87	75	82	97	72	69	68	82	15	72	38	0	29	55	52	42	104	23	95	90	114	58	56	97	68	17	58	15	89	30	71	69	37	79	100	55	106	53	39	14	17	94	103	60	78	84	69	37	80	87	38	36	103	75	69	9	102	60	105	74	48	57	56	70	53	97	21	81	75	
63	71	47	45	47	44	26	14	81	12	89	21	39	33	60	18	51	71	5	73	74	60	38	40	35	68	49	28	58	38	45	85	47	54	77	56	40	42	90	42	43	14	29	0	26	31	56	82	9	82	71	95	32	46	85	39	12	52	14	82	16	46	40	33	50	87	39	87	25	18	40	15	78	86	64	52	65	66	11	53	69	45	8	87	67	40	20	89	43	90	50	59	56	35	72	25	85	42	82	77	
64	77	57	71	25	65	45	12	100	16	85	6	58	58	78	42	30	85	24	92	94	71	62	66	43	55	31	2	56	60	69	98	29	36	72	59	15	31	109	67	17	26	55	26	0	35	80	74	35	85	67	89	25	56	88	18	38	65	41	90	37	38	19	53	29	89	46	81	17	30	65	39	79	85	83	38	63	80	24	37	69	67	19	86	76	14	46	92	47	91	43	82	72	38	89	2	89	68	97	93	
31	42	21	59	37	39	22	31	67	35	57	35	28	60	46	48	38	49	35	60	64	36	41	51	8	40	33	37	27	36	47	63	31	36	45	25	36	20	77	67	41	17	52	31	35	0	56	51	31	51	39	63	14	21	54	31	37	30	37	54	22	20	32	26	37	56	10	55	18	14	67	45	47	55	51	29	33	46	20	33	38	41	33	56	40	39	46	58	12	59	21	55	39	3	55	37	55	53	62	59	
67	60	45	26	92	17	35	69	34	68	92	76	28	50	25	54	94	43	61	28	23	42	17	21	49	93	89	82	71	20	10	53	87	93	86	61	89	76	40	50	93	54	42	56	80	56	0	95	47	74	79	100	69	43	75	85	47	37	44	61	43	75	86	30	93	79	51	94	69	51	52	55	76	85	23	84	73	38	56	89	73	14	65	85	51	90	46	79	56	84	75	7	30	57	34	80	73	22	45	38	
28	40	50	107	54	80	70	76	88	82	17	77	69	112	74	99	51	63	85	84	92	55	86	99	52	20	46	75	25	80	90	68	46	43	10	34	63	42	96	119	65	67	104	82	74	51	95	0	82	34	16	17	51	52	35	57	89	58	89	51	73	36	57	71	51	32	48	9	60	65	118	96	26	23	79	36	21	64	70	39	23	83	82	24	49	66	97	36	43	30	31	91	67	48	75	76	38	101	73	76	
61	67	42	36	54	35	20	22	73	21	88	29	32	29	52	17	57	65	14	65	65	54	29	31	32	70	55	36	58	29	36	79	52	59	76	54	47	45	81	37	50	15	23	9	35	31	47	82	0	78	70	94	35	41	81	46	6	46	7	76	10	48	47	26	56	84	36	86	30	17	36	15	76	84	56	55	64	60	14	57	67	36	17	85	61	47	15	86	41	88	52	50	49	34	64	34	81	33	74	69	
21	13	36	92	74	61	60	82	58	86	21	86	53	104	49	96	72	33	86	55	64	31	70	84	47	46	66	87	30	64	71	35	65	65	25	26	79	56	65	109	83	67	95	82	85	51	74	34	78	0	22	29	60	38	3	73	84	38	83	18	68	49	73	58	71	5	42	26	68	64	110	94	8	13	52	55	23	36	71	60	17	64	85	13	22	82	91	7	39	10	43	68	44	48	46	87	5	86	42	46	
12	25	34	92	52	64	56	68	73	73	18	70	54	99	58	87	50	48	74	68	76	39	70	84	38	24	45	69	12	64	74	54	44	43	6	18	60	37	81	105	63	56	90	71	67	39	79	16	70	22	0	24	43	37	25	54	76	41	76	38	60	30	54	56	50	24	34	16	51	53	105	85	14	18	63	33	6	48	60	38	7	67	72	19	33	63	84	27	29	24	24	75	51	36	59	70	27	86	59	61	
34	40	57	115	71	85	79	91	87	96	8	92	76	123	76	112	68	62	98	84	92	57	93	107	62	37	63	91	36	87	96	64	63	60	18	41	79	58	94	129	82	80	114	95	89	63	100	17	94	29	24	0	66	59	29	74	100	62	100	47	85	51	73	79	68	25	58	8	74	78	129	109	24	16	80	52	30	64	84	56	27	89	96	16	49	82	109	27	53	20	46	94	70	60	74	92	32	109	71	75	
39	52	35	69	23	52	33	25	82	30	61	26	42	64	60	50	25	63	33	74	78	49	52	62	22	36	21	27	31	48	59	76	18	25	48	34	22	10	91	73	27	19	58	32	25	14	69	51	35	60	43	66	0	35	63	17	41	44	42	66	30	15	18	39	24	64	24	57	8	20	72	47	54	60	65	20	38	59	21	22	44	55	30	61	52	25	50	67	23	66	20	68	53	15	69	27	64	64	75	73	
25	26	2	56	57	27	22	50	47	53	52	55	17	66	26	58	58	28	51	39	45	14	33	47	13	50	52	59	28	27	37	41	50	54	43	18	58	38	56	71	62	33	56	46	56	21	43	52	41	38	37	59	35	0	41	53	46	9	45	36	30	35	53	19	57	44	11	52	40	29	71	56	37	46	31	44	31	24	37	50	31	30	51	47	21	60	53	45	14	48	33	40	19	20	33	57	40	49	40	38	
24	15	39	94	76	63	63	85	58	89	21	89	56	107	50	99	75	34	89	56	64	33	72	86	50	49	69	90	32	66	73	35	68	68	26	29	82	59	65	112	86	70	97	85	88	54	75	35	81	3	25	29	63	41	0	76	87	40	86	18	71	52	76	60	74	4	45	27	71	67	112	96	10	13	54	57	26	37	74	63	20	66	88	13	24	85	94	4	42	9	46	69	45	51	46	90	3	88	42	46	
52	68	52	82	8	69	49	26	99	32	71	23	59	73	78	57	12	80	38	92	96	67	68	75	40	38	12	19	43	65	75	93	11	17	57	49	6	17	109	81	9	32	68	39	18	31	85	57	46	73	54	74	17	53	76	0	51	62	53	82	43	24	1	55	11	76	41	65	16	34	80	54	66	72	83	21	50	77	32	19	56	71	34	73	69	9	59	80	40	78	30	85	71	32	86	21	78	77	93	91	
67	72	48	33	59	37	24	26	75	23	94	33	36	23	55	11	62	69	15	67	66	58	30	29	38	76	60	40	64	31	36	83	57	65	82	60	52	51	83	31	55	21	17	12	38	37	47	89	6	84	76	100	41	46	87	51	0	50	2	81	16	55	52	30	61	89	42	92	36	23	30	10	81	90	58	61	70	64	20	63	74	37	20	91	66	52	8	91	47	93	58	51	53	41	67	37	87	30	78	72	
29	24	10	54	66	23	26	57	38	60	54	63	16	68	17	62	67	19	57	30	36	8	31	45	22	57	61	67	35	26	33	33	59	63	48	24	67	48	47	72	71	40	58	52	65	30	37	58	46	38	41	62	44	9	40	62	50	0	49	31	36	44	62	21	66	43	20	56	49	36	72	60	39	48	23	53	36	15	44	59	35	26	58	48	17	69	56	44	23	48	41	33	10	29	24	66	39	48	31	29	
66	71	47	30	61	35	23	28	73	26	94	35	34	22	53	13	64	67	18	65	64	57	27	26	37	77	62	42	64	28	34	81	59	66	82	59	54	52	80	30	57	22	15	14	41	37	44	89	7	83	76	100	42	45	86	53	2	49	0	80	15	55	54	28	63	89	42	92	37	23	29	12	81	90	56	62	70	62	21	65	73	35	22	90	65	54	8	90	46	93	59	48	51	41	65	39	86	27	76	70	
31	14	35	83	84	52	57	85	40	89	39	90	47	99	36	93	83	18	87	39	47	23	61	75	48	61	77	92	41	56	61	17	75	77	42	32	88	65	47	102	92	69	89	82	90	54	61	51	76	18	38	47	66	36	18	82	81	31	80	0	66	59	82	52	82	22	44	45	73	65	103	91	25	31	38	66	36	22	73	72	31	54	87	31	15	91	87	20	43	27	54	54	33	52	29	91	15	77	24	29	
51	56	32	39	51	29	10	26	65	26	78	33	23	38	44	27	54	55	21	57	58	44	25	32	22	63	51	39	48	23	32	69	48	55	67	44	46	39	74	45	50	11	30	16	37	22	43	73	10	68	60	85	30	30	71	43	16	36	15	66	0	41	44	17	53	73	26	77	27	10	44	25	65	74	48	49	54	50	13	52	58	30	23	75	51	47	24	75	31	77	44	45	40	25	55	36	71	34	65	61	
28	44	34	79	25	58	42	39	82	45	47	40	47	78	61	64	24	60	48	75	80	47	61	72	26	21	18	39	19	56	67	71	16	19	33	26	30	7	91	86	33	33	71	46	38	20	75	36	48	49	30	51	15	35	52	24	55	44	55	59	41	0	24	46	23	52	25	43	23	32	85	61	42	48	67	9	26	57	35	14	32	61	45	49	47	33	64	55	21	54	6	73	54	18	68	40	54	74	72	72	
53	68	53	83	7	70	50	27	100	33	71	24	60	73	78	58	11	81	39	92	96	67	69	76	41	38	12	19	43	65	76	93	10	17	57	50	6	17	109	82	9	33	69	40	19	32	86	57	47	73	54	73	18	53	76	1	52	62	54	82	44	24	0	56	10	77	42	65	17	35	81	55	66	72	84	21	50	77	33	18	56	72	35	73	69	9	60	80	40	78	30	86	72	33	87	21	78	78	93	91	
44	44	21	36	62	13	7	43	48	44	71	49	6	46	26	41	64	39	39	40	41	29	15	28	20	64	59	55	45	10	21	53	57	63	62	37	59	46	57	51	63	26	37	33	53	26	30	71	26	58	56	79	39	19	60	55	30	21	28	52	17	46	56	0	63	63	22	72	39	22	52	40	57	66	30	55	49	34	29	59	51	15	41	67	38	61	35	64	28	68	46	30	23	28	38	53	59	30	48	43	
51	68	56	92	3	76	57	38	104	43	66	34	66	83	83	68	1	83	49	97	101	70	76	85	45	31	5	29	42	72	83	95	7	8	52	50	14	18	113	92	15	42	79	50	29	37	93	51	56	71	50	68	24	57	74	11	61	66	63	82	53	23	10	63	0	74	46	60	26	43	91	65	64	68	88	16	48	80	42	12	54	79	45	69	71	16	70	77	43	74	28	92	76	37	91	32	76	87	96	95	
25	19	42	98	76	67	66	86	62	91	17	90	59	110	54	101	74	38	91	60	68	37	75	89	52	47	68	91	33	70	77	39	68	67	24	30	83	59	69	115	86	72	100	87	89	56	79	32	84	5	24	25	64	44	4	76	89	43	89	22	73	52	77	63	74	0	47	24	72	69	115	99	10	9	58	57	26	41	76	62	20	70	90	9	28	85	97	3	44	5	46	73	49	52	50	91	7	91	46	50	
24	32	10	59	46	34	21	41	58	45	51	45	23	64	37	54	46	39	43	51	55	25	38	50	4	42	41	48	23	32	43	52	39	43	41	17	47	27	67	70	51	25	55	39	46	10	51	48	36	42	34	58	24	11	45	41	42	20	42	44	26	25	42	22	46	47	0	50	29	21	70	51	39	48	42	34	28	35	29	39	31	37	43	48	29	49	50	50	5	51	24	48	30	9	45	47	45	52	51	49	
27	36	50	108	63	79	72	82	84	88	7	84	69	115	71	103	60	59	90	80	88	52	86	100	55	29	55	82	28	80	89	62	55	52	10	34	71	50	91	121	74	72	106	87	81	55	94	9	86	26	16	8	57	52	27	65	92	56	92	45	77	43	65	72	60	24	50	0	66	69	121	101	20	14	76	44	22	60	75	48	21	82	87	15	45	74	101	27	45	21	37	89	65	52	71	83	31	102	68	72	
47	59	40	66	24	53	33	16	85	22	70	18	44	58	63	43	27	68	26	77	80	55	52	59	26	43	24	19	39	48	59	81	21	29	56	42	19	17	94	67	23	16	53	25	17	18	69	60	30	68	51	74	8	40	71	16	36	49	37	73	27	23	17	39	26	72	29	66	0	18	66	40	62	69	68	27	46	64	16	28	52	55	22	70	59	21	44	75	29	74	28	69	57	20	73	19	72	61	80	78	
45	53	30	49	41	35	15	21	70	24	71	27	27	46	48	34	44	56	22	62	64	43	34	42	17	53	41	32	41	30	41	70	38	45	59	38	37	29	79	54	41	4	39	18	30	14	51	65	17	64	53	78	20	29	67	34	23	36	23	65	10	32	35	22	43	69	21	69	18	0	53	31	60	68	52	39	47	51	8	42	51	37	22	69	50	38	32	71	25	72	35	52	42	17	59	30	67	44	67	63	
94	97	73	26	88	52	49	53	86	49	122	59	56	7	71	23	92	87	41	79	75	80	43	31	66	107	90	66	93	47	45	100	87	95	111	87	80	82	92	2	82	52	14	40	65	67	52	118	36	110	105	129	72	71	112	80	30	72	29	103	44	85	81	52	91	115	70	121	66	53	0	26	108	117	72	92	99	82	50	94	101	50	46	118	89	79	21	117	75	120	88	59	71	70	82	63	111	30	94	87	
76	82	57	37	62	47	34	27	84	23	103	33	46	19	65	3	66	79	15	77	75	68	39	35	47	83	65	40	72	40	45	93	62	69	91	69	53	57	92	28	56	29	17	15	39	45	55	96	15	94	85	109	47	56	96	54	10	60	12	91	25	61	55	40	65	99	51	101	40	31	26	0	91	99	68	67	79	74	26	68	83	46	20	100	76	53	9	101	56	103	65	60	63	49	77	37	96	36	88	82	
15	16	35	93	66	62	59	77	64	82	15	80	53	103	52	93	64	39	82	60	68	33	70	84	43	38	58	81	23	64	72	42	57	57	16	21	72	49	71	108	76	63	94	78	79	47	76	26	76	8	14	24	54	37	10	66	81	39	81	25	65	42	66	57	64	10	39	20	62	60	108	91	0	9	56	47	16	40	67	52	10	65	81	9	25	75	89	13	35	12	36	70	46	43	51	81	13	86	48	52	
23	24	44	102	70	71	68	84	71	89	8	87	63	112	61	102	68	46	90	68	76	42	79	93	52	39	62	87	29	73	82	48	62	60	16	30	78	55	78	117	81	72	103	86	85	55	85	23	84	13	18	16	60	46	13	72	90	48	90	31	74	48	72	66	68	9	48	14	69	68	117	99	9	0	65	51	22	48	75	56	17	74	88	1	34	81	98	13	43	7	42	79	55	51	58	87	16	95	55	59	
51	40	33	48	88	21	38	73	17	75	72	80	25	69	5	68	89	20	69	9	13	24	30	41	43	80	84	85	57	27	26	29	81	86	69	46	87	70	26	70	92	56	60	64	83	51	23	79	56	52	63	80	65	31	54	83	58	23	56	38	48	67	84	30	88	58	42	76	68	52	72	68	56	65	0	76	58	16	59	81	56	22	72	65	31	89	61	57	46	63	64	16	12	51	10	83	51	42	22	15	
35	52	43	88	19	67	51	43	91	48	50	42	56	84	71	70	17	69	53	84	90	56	70	80	35	17	11	39	25	65	76	79	11	10	36	34	27	9	100	93	30	39	78	52	38	29	84	36	55	55	33	52	20	44	57	21	61	53	62	66	49	9	21	55	16	57	34	44	27	39	92	67	47	51	76	0	31	66	41	5	37	70	49	52	55	30	70	61	30	58	12	83	63	27	77	41	60	82	81	81	
7	23	28	86	50	58	49	62	69	67	24	65	47	92	53	81	48	44	68	63	71	34	64	77	32	25	42	65	7	58	68	52	41	41	13	12	56	33	77	99	60	50	84	65	63	33	73	21	64	23	6	30	38	31	26	50	70	36	70	36	54	26	50	49	48	26	28	22	46	47	99	79	16	22	58	31	0	43	54	36	6	61	66	23	29	59	78	29	23	28	20	69	46	30	55	65	28	80	55	57	
36	24	24	61	81	30	40	73	25	75	56	79	28	78	13	75	81	5	72	20	28	10	39	53	37	68	75	83	44	35	39	19	73	77	54	33	82	62	34	81	86	55	69	66	80	46	38	64	60	36	48	64	59	24	37	77	64	15	62	22	50	57	77	34	80	41	35	60	64	51	82	74	40	48	16	66	43	0	59	72	41	32	73	49	15	85	68	41	37	47	54	32	11	44	11	81	35	55	16	14	
52	61	38	50	40	41	22	13	77	16	78	20	34	43	55	29	43	64	14	69	70	51	38	44	25	57	40	26	47	36	45	78	37	45	65	45	33	31	86	51	37	4	37	11	24	20	56	70	14	71	60	84	21	37	74	32	20	44	21	73	13	35	33	29	42	76	29	75	16	8	50	26	67	75	59	41	54	59	0	43	58	43	14	76	58	34	29	79	32	80	39	58	50	24	66	24	75	45	75	71	
41	57	48	91	15	72	55	43	96	49	54	41	61	86	76	72	12	74	54	89	95	61	74	84	40	19	7	38	31	69	80	85	8	5	40	40	24	13	106	95	26	42	80	53	37	33	89	39	57	60	38	56	22	50	63	19	63	59	65	72	52	14	18	59	12	62	39	48	28	42	94	68	52	56	81	5	36	72	43	0	42	75	50	57	61	27	72	66	35	63	18	88	69	31	83	40	65	86	87	86	
7	18	29	87	56	58	52	67	65	72	20	70	48	95	51	85	54	40	73	61	69	32	65	79	35	30	49	71	13	59	68	47	48	47	13	14	62	39	73	101	66	55	87	69	69	38	73	23	67	17	7	27	44	31	20	56	74	35	73	31	58	32	56	51	54	20	31	21	52	51	101	83	10	17	56	37	6	41	58	42	0	61	71	18	26	65	82	23	26	22	26	68	44	34	52	71	22	81	51	54	
55	51	32	28	78	3	21	56	38	56	81	63	14	47	20	47	80	37	50	30	29	33	8	20	35	79	75	69	58	7	7	50	72	78	74	48	75	62	45	49	79	40	38	45	67	41	14	83	36	64	67	89	55	30	66	71	37	26	35	54	30	61	72	15	79	70	37	82	55	37	50	46	65	74	22	70	61	32	43	75	61	0	53	75	42	76	39	70	42	75	61	14	21	43	32	67	65	22	43	37	
65	75	52	53	42	52	34	7	89	3	90	13	47	39	68	23	46	77	5	81	82	65	47	49	39	66	45	20	60	46	54	91	43	50	77	59	33	40	98	48	36	18	36	8	19	33	65	82	17	85	72	96	30	51	88	34	20	58	22	87	23	45	35	41	45	90	43	87	22	22	46	20	81	88	72	49	66	73	14	50	71	53	0	89	72	33	27	92	45	93	50	68	63	37	79	17	88	50	88	84	
24	25	45	102	71	72	69	85	71	90	8	88	63	112	61	103	69	46	91	68	76	42	80	94	53	40	63	88	30	74	82	48	63	61	17	31	79	56	78	118	82	73	103	87	86	56	85	24	85	13	19	16	61	47	13	73	91	48	90	31	75	49	73	67	69	9	48	15	70	69	118	100	9	1	65	52	23	49	76	57	18	75	89	0	34	82	99	12	44	6	43	80	55	52	59	88	16	96	55	59	
22	9	20	70	72	39	42	70	39	74	41	75	33	85	26	78	71	14	72	35	43	9	48	62	33	54	65	78	31	43	49	24	64	66	39	21	75	53	47	89	79	54	75	67	76	40	51	49	61	22	33	49	52	21	24	69	66	17	65	15	51	47	69	38	71	28	29	45	59	50	89	76	25	34	31	55	29	15	58	61	26	42	72	34	0	77	73	28	29	33	43	45	21	38	26	77	22	64	26	27	
61	76	60	84	13	74	54	26	106	30	80	20	65	72	84	56	17	88	38	99	102	74	72	78	47	46	20	14	52	69	80	101	19	24	66	58	3	26	115	81	3	36	69	40	14	39	90	66	47	82	63	82	25	60	85	9	52	69	54	91	47	33	9	61	16	85	49	74	21	38	79	53	75	81	89	30	59	85	34	27	65	76	33	82	77	0	60	89	48	87	39	91	78	40	94	17	87	80	101	98	
75	79	55	28	67	40	30	34	77	30	102	40	40	14	59	8	71	73	22	69	67	64	31	26	46	85	69	47	72	34	37	87	66	74	91	68	60	60	84	22	63	30	9	20	46	46	46	97	15	91	84	109	50	53	94	59	8	56	8	87	24	64	60	35	70	97	50	101	44	32	21	9	89	98	61	70	78	68	29	72	82	39	27	99	73	60	0	98	55	101	67	51	57	49	71	44	93	26	82	76	
28	20	43	99	80	67	68	89	61	94	20	93	60	111	54	103	78	38	93	59	68	37	76	90	54	51	72	94	36	70	77	37	71	70	28	33	86	62	67	116	89	75	102	89	92	58	79	36	86	7	27	27	67	45	4	80	91	44	90	20	75	55	80	64	77	3	50	27	75	71	117	101	13	13	57	61	29	41	79	66	23	70	92	12	28	89	98	0	46	7	50	73	49	55	49	94	5	92	44	49	
20	30	13	64	43	39	26	43	61	47	47	47	28	69	40	58	44	40	47	54	59	26	43	56	9	37	38	49	18	37	48	53	36	40	36	13	45	24	70	75	49	28	60	43	47	12	56	43	41	39	29	53	23	14	42	40	47	23	46	43	31	21	40	28	43	44	5	45	29	25	75	56	35	43	46	30	23	37	32	35	26	42	45	44	29	48	55	46	0	47	19	53	33	9	47	48	43	58	53	51	
27	24	46	103	77	72	70	89	67	94	13	92	64	114	59	105	75	44	94	65	74	42	80	94	55	46	69	93	35	74	82	44	69	67	23	34	84	61	74	119	87	76	105	90	91	59	84	30	88	10	24	20	66	48	9	78	93	48	93	27	77	54	78	68	74	5	51	21	74	72	120	103	12	7	63	58	28	47	80	63	22	75	93	6	33	87	101	7	47	0	48	78	54	56	56	93	12	96	51	56	
23	39	31	81	30	58	43	45	79	50	41	46	47	81	59	68	29	56	53	72	78	43	61	73	26	18	23	45	13	56	67	67	21	23	28	21	36	13	88	89	39	36	74	50	43	21	75	31	52	43	24	46	20	33	46	30	58	41	59	54	44	6	30	46	28	46	24	37	28	35	88	65	36	42	64	12	20	54	39	18	26	61	50	43	43	39	67	50	19	48	0	72	52	18	65	46	48	75	69	68	
62	55	42	33	92	16	36	71	27	71	86	78	26	57	18	59	93	36	65	20	16	37	21	28	47	90	89	84	68	21	14	45	86	92	81	57	89	75	33	57	93	55	48	59	82	55	7	91	50	68	75	94	68	40	69	85	51	33	48	54	45	73	86	30	92	73	48	89	69	52	59	60	70	79	16	83	69	32	58	88	68	14	68	80	45	91	51	73	53	78	72	0	24	56	26	82	67	29	37	30	
39	30	20	50	76	19	29	64	28	66	62	70	17	67	7	64	77	16	62	20	26	13	28	42	31	68	71	75	45	24	28	30	69	73	57	34	76	57	37	70	80	46	57	56	72	39	30	67	49	44	51	70	53	19	45	71	53	10	51	33	40	54	72	23	76	49	30	65	57	42	71	63	46	55	12	63	46	11	50	69	44	21	63	55	21	78	57	49	33	54	52	24	0	39	16	73	44	44	25	21	
28	39	20	62	37	40	24	34	67	38	54	38	29	63	46	51	38	48	39	60	64	34	43	54	8	37	33	40	23	38	49	61	30	35	42	22	37	19	76	71	42	20	56	35	38	3	57	48	34	48	36	60	15	20	51	32	41	29	41	52	25	18	33	28	37	52	9	52	20	17	70	49	43	51	51	27	30	44	24	31	34	43	37	52	38	40	49	55	9	56	18	56	39	0	54	39	52	56	60	58	
48	35	34	58	91	31	45	80	13	82	66	86	32	79	12	78	91	12	77	9	18	21	40	51	46	79	86	91	56	37	37	18	84	87	65	44	92	72	22	81	96	63	70	72	89	55	34	75	64	46	59	74	69	33	46	86	67	24	65	29	55	68	87	38	91	50	45	71	73	59	82	77	51	58	10	77	55	11	66	83	52	32	79	59	26	94	71	49	47	56	65	26	16	54	0	89	44	53	11	5	
66	78	58	70	28	65	46	11	101	14	88	4	58	56	79	40	32	86	22	93	94	72	62	65	44	58	33	3	58	60	69	99	32	38	74	61	18	33	110	65	19	27	53	25	2	37	80	76	34	87	70	92	27	57	90	21	37	66	39	91	36	40	21	53	32	91	47	83	19	30	63	37	81	87	83	41	65	81	24	40	71	67	17	88	77	17	44	94	48	93	46	82	73	39	89	0	91	67	97	94	
25	14	39	93	78	62	63	86	55	90	24	90	55	106	48	98	77	32	89	53	62	31	70	85	50	51	71	91	34	65	72	32	70	70	29	30	84	60	62	111	88	71	97	85	89	55	73	38	81	5	27	32	64	40	3	78	87	39	86	15	71	54	78	59	76	7	45	31	72	67	111	96	13	16	51	60	28	35	75	65	22	65	88	16	22	87	93	5	43	12	48	67	44	52	44	91	0	87	39	43	
74	72	51	6	85	25	32	56	56	54	101	63	32	28	42	34	88	59	46	49	45	55	16	2	49	94	85	70	76	22	16	71	82	89	93	67	79	73	62	28	83	45	21	42	68	53	22	101	33	86	86	109	64	49	88	77	30	48	27	77	34	74	78	30	87	91	52	102	61	44	30	36	86	95	42	82	80	55	45	86	81	22	50	96	64	80	26	92	58	96	75	29	44	56	53	67	87	0	64	57	
49	33	40	70	96	42	55	89	17	91	63	95	42	90	23	89	96	12	87	17	26	26	51	63	53	80	91	99	58	48	48	8	89	92	64	47	98	77	23	92	102	71	81	82	97	62	45	73	74	42	59	71	75	40	42	93	78	31	76	24	65	72	93	48	96	46	51	68	80	67	94	88	48	55	22	81	55	16	75	87	51	43	88	55	26	101	82	44	53	51	69	37	25	60	11	97	39	64	0	7	
50	36	38	63	95	36	50	85	12	87	67	91	37	84	17	83	95	13	82	10	19	25	45	56	51	82	90	96	59	42	41	15	87	91	66	47	96	76	19	85	100	67	75	77	93	59	38	76	69	46	61	75	73	38	46	91	72	29	70	29	61	72	91	43	95	50	49	72	78	63	87	82	52	59	15	81	57	14	71	86	54	37	84	59	27	98	76	49	51	56	68	30	21	58	5	94	43	57	7	0	
